0000.000 (0) Opened log file at time: Thu, 06 Apr 2017 08:55:04 +0000 on https://netsales.es
0000.008 (0) UpdraftPlus WordPress backup plugin (https://updraftplus.com): 1.12.40 WP: 4.7.3 PHP: 5.5.9-1ubuntu4.21 (apache2handler, Linux netsales-web 4.9.7-x86_64-linode80 #2 SMP Thu Feb 2 15:43:55 EST 2017 x86_64) MySQL: 5.5.54 WPLANG: es_ES Server: Apache safe_mode: 0 max_execution_time: 900 memory_limit: 128M (used: 16.6M | 17.8M) multisite: N openssl: OpenSSL 1.0.1f 6 Jan 2014 mcrypt: Y LANG: C ZipArchive::addFile: Y
0000.009 (0) Free space on disk containing Updraft's temporary directory: 7377.1 MB
0000.011 (0) Tasks: Backup files: 1 (schedule: manual) Backup DB: 1 (schedule: manual)
0000.013 (0) Semaphore (fd, ndb_options) being initialised
0000.019 (0) Requesting semaphore lock (fd) (apparently not via scheduler)
0000.022 (0) Set semaphore last lock (fd) time to 2017-04-06 08:55:04
0000.023 (0) Semaphore lock (fd) complete
0000.028 (0) Backup run: resumption=0, nonce=b3a1271d0cec, begun at=1491468904 (0s ago), job type=backup
0000.030 (0) Scheduling a resumption (1) after 300 seconds (1491469204) in case this run gets aborted
0000.047 (0) Checking if we have a zip executable available
0000.050 (0) Creation of backups of directories: beginning
0000.053 (0) Beginning creation of dump of plugins (split every: 500 MB)
0000.150 (0) Total entities for the zip file: 692 directories, 4576 files (0 skipped as non-modified), 70.2 MB
0000.163 (0) Zip: backup_2017-04-06-1055_netsaleses_b3a1271d0cec-plugins.zip.tmp: 100 files added (on-disk size: 0 KB)
0000.171 (0) Zip: backup_2017-04-06-1055_netsaleses_b3a1271d0cec-plugins.zip.tmp: 200 files added (on-disk size: 0 KB)
0000.178 (0) Zip: backup_2017-04-06-1055_netsaleses_b3a1271d0cec-plugins.zip.tmp: 300 files added (on-disk size: 0 KB)
0000.187 (0) Zip: backup_2017-04-06-1055_netsaleses_b3a1271d0cec-plugins.zip.tmp: 400 files added (on-disk size: 0 KB)
0000.202 (0) Zip: backup_2017-04-06-1055_netsaleses_b3a1271d0cec-plugins.zip.tmp: 500 files added (on-disk size: 0 KB)
0000.205 (0) Adding batch to zip file (UpdraftPlus_ZipArchive): over 500 files added on this batch (18.6 MB, 4576 files batched, 501 (501) added so far); re-opening (prior size: 0 KB)
0001.768 (0) Zip: backup_2017-04-06-1055_netsaleses_b3a1271d0cec-plugins.zip.tmp: 600 files added (on-disk size: 5437.7 KB)
0001.779 (0) Zip: backup_2017-04-06-1055_netsaleses_b3a1271d0cec-plugins.zip.tmp: 700 files added (on-disk size: 5437.7 KB)
0001.792 (0) Zip: backup_2017-04-06-1055_netsaleses_b3a1271d0cec-plugins.zip.tmp: 800 files added (on-disk size: 5437.7 KB)
0001.804 (0) Zip: backup_2017-04-06-1055_netsaleses_b3a1271d0cec-plugins.zip.tmp: 900 files added (on-disk size: 5437.7 KB)
0001.816 (0) Zip: backup_2017-04-06-1055_netsaleses_b3a1271d0cec-plugins.zip.tmp: 1000 files added (on-disk size: 5437.7 KB)
0001.819 (0) Adding batch to zip file (UpdraftPlus_ZipArchive): over 500 files added on this batch (2 MB, 4576 files batched, 501 (1002) added so far); re-opening (prior size: 5437.7 KB)
0001.988 (0) Zip: backup_2017-04-06-1055_netsaleses_b3a1271d0cec-plugins.zip.tmp: 1100 files added (on-disk size: 6156.1 KB)
0002.006 (0) Zip: backup_2017-04-06-1055_netsaleses_b3a1271d0cec-plugins.zip.tmp: 1200 files added (on-disk size: 6156.1 KB)
0002.019 (0) Zip: backup_2017-04-06-1055_netsaleses_b3a1271d0cec-plugins.zip.tmp: 1300 files added (on-disk size: 6156.1 KB)
0002.031 (0) Zip: backup_2017-04-06-1055_netsaleses_b3a1271d0cec-plugins.zip.tmp: 1400 files added (on-disk size: 6156.1 KB)
0002.042 (0) Zip: backup_2017-04-06-1055_netsaleses_b3a1271d0cec-plugins.zip.tmp: 1500 files added (on-disk size: 6156.1 KB)
0002.044 (0) Adding batch to zip file (UpdraftPlus_ZipArchive): over 500 files added on this batch (7.2 MB, 4576 files batched, 501 (1503) added so far); re-opening (prior size: 6156.1 KB)
0002.634 (0) Zip: backup_2017-04-06-1055_netsaleses_b3a1271d0cec-plugins.zip.tmp: 1600 files added (on-disk size: 8610.8 KB)
0002.653 (0) Zip: backup_2017-04-06-1055_netsaleses_b3a1271d0cec-plugins.zip.tmp: 1700 files added (on-disk size: 8610.8 KB)
0002.675 (0) Zip: backup_2017-04-06-1055_netsaleses_b3a1271d0cec-plugins.zip.tmp: 1800 files added (on-disk size: 8610.8 KB)
0002.695 (0) Zip: backup_2017-04-06-1055_netsaleses_b3a1271d0cec-plugins.zip.tmp: 1900 files added (on-disk size: 8610.8 KB)
0002.716 (0) Zip: backup_2017-04-06-1055_netsaleses_b3a1271d0cec-plugins.zip.tmp: 2000 files added (on-disk size: 8610.8 KB)
0002.720 (0) Adding batch to zip file (UpdraftPlus_ZipArchive): over 500 files added on this batch (8.6 MB, 4576 files batched, 501 (2004) added so far); re-opening (prior size: 8610.8 KB)
0003.351 (0) Zip: backup_2017-04-06-1055_netsaleses_b3a1271d0cec-plugins.zip.tmp: 2100 files added (on-disk size: 13263.2 KB)
0003.366 (0) Zip: backup_2017-04-06-1055_netsaleses_b3a1271d0cec-plugins.zip.tmp: 2200 files added (on-disk size: 13263.2 KB)
0003.379 (0) Zip: backup_2017-04-06-1055_netsaleses_b3a1271d0cec-plugins.zip.tmp: 2300 files added (on-disk size: 13263.2 KB)
0003.393 (0) Zip: backup_2017-04-06-1055_netsaleses_b3a1271d0cec-plugins.zip.tmp: 2400 files added (on-disk size: 13263.2 KB)
0003.406 (0) Zip: backup_2017-04-06-1055_netsaleses_b3a1271d0cec-plugins.zip.tmp: 2500 files added (on-disk size: 13263.2 KB)
0003.408 (0) Adding batch to zip file (UpdraftPlus_ZipArchive): over 500 files added on this batch (6.7 MB, 4576 files batched, 501 (2505) added so far); re-opening (prior size: 13263.2 KB)
0003.915 (0) Zip: backup_2017-04-06-1055_netsaleses_b3a1271d0cec-plugins.zip.tmp: 2600 files added (on-disk size: 14770.7 KB)
0003.930 (0) Zip: backup_2017-04-06-1055_netsaleses_b3a1271d0cec-plugins.zip.tmp: 2700 files added (on-disk size: 14770.7 KB)
0003.951 (0) Zip: backup_2017-04-06-1055_netsaleses_b3a1271d0cec-plugins.zip.tmp: 2800 files added (on-disk size: 14770.7 KB)
0003.967 (0) Zip: backup_2017-04-06-1055_netsaleses_b3a1271d0cec-plugins.zip.tmp: 2900 files added (on-disk size: 14770.7 KB)
0003.982 (0) Zip: backup_2017-04-06-1055_netsaleses_b3a1271d0cec-plugins.zip.tmp: 3000 files added (on-disk size: 14770.7 KB)
0003.985 (0) Adding batch to zip file (UpdraftPlus_ZipArchive): over 500 files added on this batch (4.6 MB, 4576 files batched, 501 (3006) added so far); re-opening (prior size: 14770.7 KB)
0004.366 (0) Zip: backup_2017-04-06-1055_netsaleses_b3a1271d0cec-plugins.zip.tmp: 3100 files added (on-disk size: 16095.1 KB)
0004.384 (0) Zip: backup_2017-04-06-1055_netsaleses_b3a1271d0cec-plugins.zip.tmp: 3200 files added (on-disk size: 16095.1 KB)
0004.402 (0) Zip: backup_2017-04-06-1055_netsaleses_b3a1271d0cec-plugins.zip.tmp: 3300 files added (on-disk size: 16095.1 KB)
0004.419 (0) Zip: backup_2017-04-06-1055_netsaleses_b3a1271d0cec-plugins.zip.tmp: 3400 files added (on-disk size: 16095.1 KB)
0004.437 (0) Zip: backup_2017-04-06-1055_netsaleses_b3a1271d0cec-plugins.zip.tmp: 3500 files added (on-disk size: 16095.1 KB)
0004.440 (0) Adding batch to zip file (UpdraftPlus_ZipArchive): over 500 files added on this batch (8.9 MB, 4576 files batched, 501 (3507) added so far); re-opening (prior size: 16095.1 KB)
0005.187 (0) Zip: backup_2017-04-06-1055_netsaleses_b3a1271d0cec-plugins.zip.tmp: 3600 files added (on-disk size: 18470.7 KB)
0005.204 (0) Zip: backup_2017-04-06-1055_netsaleses_b3a1271d0cec-plugins.zip.tmp: 3700 files added (on-disk size: 18470.7 KB)
0005.219 (0) Zip: backup_2017-04-06-1055_netsaleses_b3a1271d0cec-plugins.zip.tmp: 3800 files added (on-disk size: 18470.7 KB)
0005.236 (0) Zip: backup_2017-04-06-1055_netsaleses_b3a1271d0cec-plugins.zip.tmp: 3900 files added (on-disk size: 18470.7 KB)
0005.254 (0) Zip: backup_2017-04-06-1055_netsaleses_b3a1271d0cec-plugins.zip.tmp: 4000 files added (on-disk size: 18470.7 KB)
0005.257 (0) Adding batch to zip file (UpdraftPlus_ZipArchive): over 500 files added on this batch (8.9 MB, 4576 files batched, 501 (4008) added so far); re-opening (prior size: 18470.7 KB)
0005.861 (0) Zip: backup_2017-04-06-1055_netsaleses_b3a1271d0cec-plugins.zip.tmp: 4100 files added (on-disk size: 22927.7 KB)
0005.893 (0) Zip: backup_2017-04-06-1055_netsaleses_b3a1271d0cec-plugins.zip.tmp: 4200 files added (on-disk size: 22927.7 KB)
0005.924 (0) Zip: backup_2017-04-06-1055_netsaleses_b3a1271d0cec-plugins.zip.tmp: 4300 files added (on-disk size: 22927.7 KB)
0005.946 (0) Zip: backup_2017-04-06-1055_netsaleses_b3a1271d0cec-plugins.zip.tmp: 4400 files added (on-disk size: 22927.7 KB)
0005.965 (0) Zip: backup_2017-04-06-1055_netsaleses_b3a1271d0cec-plugins.zip.tmp: 4500 files added (on-disk size: 22927.7 KB)
0005.969 (0) Adding batch to zip file (UpdraftPlus_ZipArchive): over 500 files added on this batch (4.4 MB, 4576 files batched, 501 (4509) added so far); re-opening (prior size: 22927.7 KB)
0006.753 (0) Created plugins zip (0) - 24681 KB in 6.7 s (3684.6 KB/s) (sha1: 8e3dea5ad7c7695b63608cb0644f8bb7796c595d, sha256: 1d78359f9a68301c3ea1978b16504a6ea95dbdbc63e6c02cdab13d7e53aa1459)
0006.756 (0) Beginning creation of dump of themes (split every: 500 MB)
0006.778 (0) Total entities for the zip file: 119 directories, 1058 files (0 skipped as non-modified), 75.4 MB
0006.784 (0) Zip: backup_2017-04-06-1055_netsaleses_b3a1271d0cec-themes.zip.tmp: 100 files added (on-disk size: 0 KB)
0006.790 (0) Zip: backup_2017-04-06-1055_netsaleses_b3a1271d0cec-themes.zip.tmp: 200 files added (on-disk size: 0 KB)
0006.796 (0) Zip: backup_2017-04-06-1055_netsaleses_b3a1271d0cec-themes.zip.tmp: 300 files added (on-disk size: 0 KB)
0006.801 (0) Adding batch to zip file (UpdraftPlus_ZipArchive): over 25 MB added on this batch (26.6 MB, 1058 files batched, 369 (369) added so far); re-opening (prior size: 0 KB)
0007.809 (0) A useful amount of data was added after this amount of zip processing: 2 s (normalised: 1.8 s, rate: 13879.6 KB/s)
0007.813 (0) Performance is good - will increase the amount of data we attempt to batch (time=1.9622209072113, normalised_time=1.8444304815128, max_time=-1, data points known=0, old_max_bytes=26214400, new_max_bytes=85276404)
0007.817 (0) Zip: backup_2017-04-06-1055_netsaleses_b3a1271d0cec-themes.zip.tmp: 400 files added (on-disk size: 9066.4 KB)
0007.824 (0) Zip: backup_2017-04-06-1055_netsaleses_b3a1271d0cec-themes.zip.tmp: 500 files added (on-disk size: 9066.4 KB)
0007.832 (0) Zip: backup_2017-04-06-1055_netsaleses_b3a1271d0cec-themes.zip.tmp: 600 files added (on-disk size: 9066.4 KB)
0007.839 (0) Zip: backup_2017-04-06-1055_netsaleses_b3a1271d0cec-themes.zip.tmp: 700 files added (on-disk size: 9066.4 KB)
0007.846 (0) Zip: backup_2017-04-06-1055_netsaleses_b3a1271d0cec-themes.zip.tmp: 800 files added (on-disk size: 9066.4 KB)
0007.852 (0) Adding batch to zip file (UpdraftPlus_ZipArchive): over 500 files added on this batch (20.8 MB, 1058 files batched, 501 (870) added so far); re-opening (prior size: 9066.4 KB)
0009.279 (0) Zip: backup_2017-04-06-1055_netsaleses_b3a1271d0cec-themes.zip.tmp: 900 files added (on-disk size: 14799.1 KB)
0009.288 (0) Zip: backup_2017-04-06-1055_netsaleses_b3a1271d0cec-themes.zip.tmp: 1000 files added (on-disk size: 14799.1 KB)
0010.916 (0) Created themes zip (0) - 42118 KB in 4.2 s (10127.3 KB/s) (sha1: d7808e3c8cdaa2222194661852d825f66eb7b95e, sha256: df363f11a7ee4cd944473c2fd1f49dcbfbb2d517e4809fd90abd960505779755)
0010.920 (0) Exclusion option setting (uploads): backup*,*backups,backwpup*,wp-clone
0010.922 (0) Looking for candidates to back up in: /var/www/netsales/wp-content/uploads
0010.923 (0) finding files: 2012: adding to list (1)
0010.925 (0) finding files: 2013: adding to list (2)
0010.926 (0) finding files: 2017: adding to list (3)
0010.927 (0) finding files: mainwp: adding to list (4)
0010.929 (0) finding files: 2016: adding to list (5)
0010.930 (0) finding files: dynamic_avia: adding to list (6)
0010.931 (0) finding files: 2011: adding to list (7)
0010.933 (0) Beginning creation of dump of uploads (split every: 500 MB)
0010.980 (0) Total entities for the zip file: 20 directories, 2626 files (0 skipped as non-modified), 281.3 MB
0010.987 (0) Zip: backup_2017-04-06-1055_netsaleses_b3a1271d0cec-uploads.zip.tmp: 100 files added (on-disk size: 0 KB)
0010.994 (0) Zip: backup_2017-04-06-1055_netsaleses_b3a1271d0cec-uploads.zip.tmp: 200 files added (on-disk size: 0 KB)
0011.001 (0) Zip: backup_2017-04-06-1055_netsaleses_b3a1271d0cec-uploads.zip.tmp: 300 files added (on-disk size: 0 KB)
0011.009 (0) Zip: backup_2017-04-06-1055_netsaleses_b3a1271d0cec-uploads.zip.tmp: 400 files added (on-disk size: 0 KB)
0011.017 (0) Zip: backup_2017-04-06-1055_netsaleses_b3a1271d0cec-uploads.zip.tmp: 500 files added (on-disk size: 0 KB)
0011.020 (0) Adding batch to zip file (UpdraftPlus_ZipArchive): over 500 files added on this batch (44.6 MB, 2626 files batched, 501 (501) added so far); re-opening (prior size: 0 KB)
0012.780 (0) Zip: backup_2017-04-06-1055_netsaleses_b3a1271d0cec-uploads.zip.tmp: 600 files added (on-disk size: 45329.3 KB)
0012.788 (0) Zip: backup_2017-04-06-1055_netsaleses_b3a1271d0cec-uploads.zip.tmp: 700 files added (on-disk size: 45329.3 KB)
0012.795 (0) Zip: backup_2017-04-06-1055_netsaleses_b3a1271d0cec-uploads.zip.tmp: 800 files added (on-disk size: 45329.3 KB)
0012.803 (0) Zip: backup_2017-04-06-1055_netsaleses_b3a1271d0cec-uploads.zip.tmp: 900 files added (on-disk size: 45329.3 KB)
0012.811 (0) Zip: backup_2017-04-06-1055_netsaleses_b3a1271d0cec-uploads.zip.tmp: 1000 files added (on-disk size: 45329.3 KB)
0012.812 (0) Adding batch to zip file (UpdraftPlus_ZipArchive): over 500 files added on this batch (27.9 MB, 2626 files batched, 501 (1002) added so far); re-opening (prior size: 45329.3 KB)
0014.081 (0) Zip: backup_2017-04-06-1055_netsaleses_b3a1271d0cec-uploads.zip.tmp: 1100 files added (on-disk size: 72737.6 KB)
0014.089 (0) Adding batch to zip file (UpdraftPlus_ZipArchive): over 81.3 MB added on this batch (81.5 MB, 2626 files batched, 112 (1114) added so far); re-opening (prior size: 72737.6 KB)
0017.768 (0) A useful amount of data was added after this amount of zip processing: 3.9 s (normalised: 3.9 s, rate: 21294.3 KB/s)
0017.782 (0) Performance is good - will increase the amount of data we attempt to batch (time=3.9206049442291, normalised_time=3.910798414641, max_time=-1, data points known=0, old_max_bytes=85276404, new_max_bytes=130832216)
0017.794 (0) Zip: backup_2017-04-06-1055_netsaleses_b3a1271d0cec-uploads.zip.tmp: 1200 files added (on-disk size: 151854.8 KB)
0017.803 (0) Zip: backup_2017-04-06-1055_netsaleses_b3a1271d0cec-uploads.zip.tmp: 1300 files added (on-disk size: 151854.8 KB)
0017.812 (0) Zip: backup_2017-04-06-1055_netsaleses_b3a1271d0cec-uploads.zip.tmp: 1400 files added (on-disk size: 151854.8 KB)
0017.822 (0) Zip: backup_2017-04-06-1055_netsaleses_b3a1271d0cec-uploads.zip.tmp: 1500 files added (on-disk size: 151854.8 KB)
0017.831 (0) Zip: backup_2017-04-06-1055_netsaleses_b3a1271d0cec-uploads.zip.tmp: 1600 files added (on-disk size: 151854.8 KB)
0017.835 (0) Adding batch to zip file (UpdraftPlus_ZipArchive): over 500 files added on this batch (40.7 MB, 2626 files batched, 501 (1615) added so far); re-opening (prior size: 151854.8 KB)
0019.892 (0) Zip: backup_2017-04-06-1055_netsaleses_b3a1271d0cec-uploads.zip.tmp: 1700 files added (on-disk size: 192437.6 KB)
0019.931 (0) Zip: backup_2017-04-06-1055_netsaleses_b3a1271d0cec-uploads.zip.tmp: 1800 files added (on-disk size: 192437.6 KB)
0019.942 (0) Zip: backup_2017-04-06-1055_netsaleses_b3a1271d0cec-uploads.zip.tmp: 1900 files added (on-disk size: 192437.6 KB)
0019.954 (0) Zip: backup_2017-04-06-1055_netsaleses_b3a1271d0cec-uploads.zip.tmp: 2000 files added (on-disk size: 192437.6 KB)
0019.966 (0) Zip: backup_2017-04-06-1055_netsaleses_b3a1271d0cec-uploads.zip.tmp: 2100 files added (on-disk size: 192437.6 KB)
0019.970 (0) Adding batch to zip file (UpdraftPlus_ZipArchive): over 500 files added on this batch (47 MB, 2626 files batched, 501 (2116) added so far); re-opening (prior size: 192437.6 KB)
0022.225 (0) Zip: backup_2017-04-06-1055_netsaleses_b3a1271d0cec-uploads.zip.tmp: 2200 files added (on-disk size: 239412.8 KB)
0022.236 (0) Zip: backup_2017-04-06-1055_netsaleses_b3a1271d0cec-uploads.zip.tmp: 2300 files added (on-disk size: 239412.8 KB)
0022.249 (0) Zip: backup_2017-04-06-1055_netsaleses_b3a1271d0cec-uploads.zip.tmp: 2400 files added (on-disk size: 239412.8 KB)
0022.263 (0) Zip: backup_2017-04-06-1055_netsaleses_b3a1271d0cec-uploads.zip.tmp: 2500 files added (on-disk size: 239412.8 KB)
0022.278 (0) Zip: backup_2017-04-06-1055_netsaleses_b3a1271d0cec-uploads.zip.tmp: 2600 files added (on-disk size: 239412.8 KB)
0022.283 (0) Adding batch to zip file (UpdraftPlus_ZipArchive): over 500 files added on this batch (39.2 MB, 2626 files batched, 501 (2617) added so far); re-opening (prior size: 239412.8 KB)
0028.786 (0) Created uploads zip (0) - 278697.8 KB in 17.9 s (15612.1 KB/s) (sha1: 3b9b2933448eacb4afb6285348926d430add4370, sha256: 42cc367ce68055b9e09900b6e26ab16e269cf345b70f0405cd5effb9b30f4f8a)
0028.790 (0) Beginning backup of other directories found in the content directory (index: 0)
0028.791 (0) Exclusion option setting (others): upgrade,cache,updraft,backup*,*backups,mysql.sql
0028.792 (0) Looking for candidates to back up in: /var/www/netsales/wp-content
0028.793 (0) finding files: w3tc-config: adding to list (1)
0028.794 (0) finding files: upgrade: skipping: excluded by options
0028.796 (0) finding files: logs: adding to list (2)
0028.797 (0) finding files: aiowps_backups: skipping: excluded by options (glob)
0028.799 (0) finding files: advanced-cache.php: adding to list (3)
0028.800 (0) finding files: index.php: adding to list (4)
0028.801 (0) finding files: languages: adding to list (5)
0028.802 (0) finding files: cache: skipping: excluded by options
0028.803 (0) finding files: plugins: skipping: this is the plugins directory
0028.804 (0) finding files: themes: skipping: this is the themes directory
0028.804 (0) finding files: uploads: skipping: this is the uploads directory
0028.806 (0) finding files: updraft: skipping: this is the updraft directory
0028.809 (0) Total entities for the zip file: 6 directories, 38 files (0 skipped as non-modified), 2.9 MB
0029.124 (0) Created others zip (0) - 860.7 KB in 0.3 s (2710.6 KB/s) (sha1: 6f1ffddc7b51636ad019f4d885c30d6c87fbe908, sha256: 2bbaf1ea5e6aab2be5b3711cbfb51d357b83f456ee42be810e82a5d7d008299e)
0029.130 (0) Saving backup status to database (elements: 8)
0029.134 (0) Beginning creation of database dump (WordPress DB)
0029.137 (0) Testing: /usr/bin/mysqldump
0029.160 (0) Output: /*!40103 SET @OLD_TIME_ZONE=@@TIME_ZONE */;\n/*!40103 SET TIME_ZONE='+00:00' */;\n/*!40014 SET @OLD_UNIQUE_CHECKS=@@UNIQUE_CHECKS, UNIQUE_CHECKS=0 */;\n/*!40014 SET @OLD_FOREIGN_KEY_CHECKS=@@FOREIGN_KEY_CHECKS, FOREIGN_KEY_CHECKS=0 */;\n/*!40101 SET @OLD_SQL_MODE=@@SQL_MODE, SQL_MODE='NO_AUTO_VALUE_ON_ZERO' */;\n/*!40111 SET @OLD_SQL_NOTES=@@SQL_NOTES, SQL_NOTES=0 */;\nDROP TABLE IF EXISTS `ndb_options`;\n/*!40101 SET @saved_cs_client     = @@character_set_client */;\n/*!40101 SET character_set_client = utf8 */;\nCR (truncated - 1194 bytes total)
0029.164 (0) Working binary mysqldump found: /usr/bin/mysqldump
0029.173 (0) Table ndb_options: Total expected rows (approximate): 266
0029.215 (0) Table ndb_options: Total rows added: 595 in 0.04 seconds
0029.218 (0) Table ndb_options: finishing file (backup_2017-04-06-1055_netsaleses_b3a1271d0cec-db-table-ndb_options.table.gz - 151.3 KB)
0029.223 (0) Table ndb_users: Total expected rows (approximate): 5
0029.226 (0) Table ndb_users: Total rows added: 5 in 0.00 seconds
0029.227 (0) Table ndb_users: finishing file (backup_2017-04-06-1055_netsaleses_b3a1271d0cec-db-table-ndb_users.table.gz - 0.9 KB)
0029.232 (0) Table ndb_usermeta: Total expected rows (approximate): 88
0029.237 (0) Table ndb_usermeta: Total rows added: 147 in 0.00 seconds
0029.239 (0) Table ndb_usermeta: finishing file (backup_2017-04-06-1055_netsaleses_b3a1271d0cec-db-table-ndb_usermeta.table.gz - 6 KB)
0029.243 (0) Table ndb_commentmeta: Total expected rows (approximate): 0
0029.245 (0) Table ndb_commentmeta: Total rows added: 0 in 0.00 seconds
0029.247 (0) Table ndb_commentmeta: finishing file (backup_2017-04-06-1055_netsaleses_b3a1271d0cec-db-table-ndb_commentmeta.table.gz - 0.4 KB)
0029.252 (0) Table ndb_comments: Total expected rows (approximate): 4
0029.256 (0) Table ndb_comments: Total rows added: 4 in 0.00 seconds
0029.258 (0) Table ndb_comments: finishing file (backup_2017-04-06-1055_netsaleses_b3a1271d0cec-db-table-ndb_comments.table.gz - 1.4 KB)
0029.264 (0) Table ndb_links: Total expected rows (approximate): 0
0029.266 (0) Table ndb_links: Total rows added: 0 in 0.00 seconds
0029.268 (0) Table ndb_links: finishing file (backup_2017-04-06-1055_netsaleses_b3a1271d0cec-db-table-ndb_links.table.gz - 0.4 KB)
0029.276 (0) Table ndb_postmeta: Total expected rows (approximate): 1539
0029.330 (0) Table ndb_postmeta: Total rows added: 1411 in 0.05 seconds
0029.333 (0) Table ndb_postmeta: finishing file (backup_2017-04-06-1055_netsaleses_b3a1271d0cec-db-table-ndb_postmeta.table.gz - 98.2 KB)
0029.340 (0) Table ndb_posts: Total expected rows (approximate): 918
0029.650 (0) Table ndb_posts: Total rows added: 929 in 0.31 seconds
0029.654 (0) Table ndb_posts: finishing file (backup_2017-04-06-1055_netsaleses_b3a1271d0cec-db-table-ndb_posts.table.gz - 759.5 KB)
0029.662 (0) Table ndb_term_relationships: Total expected rows (approximate): 33
0029.667 (0) Table ndb_term_relationships: Total rows added: 33 in 0.00 seconds
0029.670 (0) Table ndb_term_relationships: finishing file (backup_2017-04-06-1055_netsaleses_b3a1271d0cec-db-table-ndb_term_relationships.table.gz - 0.5 KB)
0029.677 (0) Table ndb_term_taxonomy: Total expected rows (approximate): 44
0029.681 (0) Table ndb_term_taxonomy: Total rows added: 44 in 0.00 seconds
0029.683 (0) Table ndb_term_taxonomy: finishing file (backup_2017-04-06-1055_netsaleses_b3a1271d0cec-db-table-ndb_term_taxonomy.table.gz - 0.7 KB)
0029.688 (0) Table ndb_termmeta: Total expected rows (approximate): 0
0029.696 (0) Table ndb_termmeta: Total rows added: 0 in 0.00 seconds
0029.699 (0) Table ndb_termmeta: finishing file (backup_2017-04-06-1055_netsaleses_b3a1271d0cec-db-table-ndb_termmeta.table.gz - 0.4 KB)
0029.709 (0) Table ndb_terms: Total expected rows (approximate): 44
0029.714 (0) Table ndb_terms: Total rows added: 44 in 0.00 seconds
0029.721 (0) Table ndb_terms: finishing file (backup_2017-04-06-1055_netsaleses_b3a1271d0cec-db-table-ndb_terms.table.gz - 1 KB)
0029.729 (0) Table ndb_aiowps_events: Total expected rows (approximate): 0
0029.734 (0) Table ndb_aiowps_events: Total rows added: 0 in 0.00 seconds
0029.737 (0) Table ndb_aiowps_events: finishing file (backup_2017-04-06-1055_netsaleses_b3a1271d0cec-db-table-ndb_aiowps_events.table.gz - 0.4 KB)
0029.743 (0) Table ndb_aiowps_failed_logins: Total expected rows (approximate): 3
0029.746 (0) Table ndb_aiowps_failed_logins: Total rows added: 3 in 0.00 seconds
0029.747 (0) Table ndb_aiowps_failed_logins: finishing file (backup_2017-04-06-1055_netsaleses_b3a1271d0cec-db-table-ndb_aiowps_failed_logins.table.gz - 0.5 KB)
0029.752 (0) Table ndb_aiowps_global_meta: Total expected rows (approximate): 1
0029.792 (0) Table ndb_aiowps_global_meta: Total rows added: 1 in 0.04 seconds
0029.795 (0) Table ndb_aiowps_global_meta: finishing file (backup_2017-04-06-1055_netsaleses_b3a1271d0cec-db-table-ndb_aiowps_global_meta.table.gz - 116.2 KB)
0029.801 (0) Table ndb_aiowps_login_activity: Total expected rows (approximate): 71
0029.808 (0) Table ndb_aiowps_login_activity: Total rows added: 71 in 0.00 seconds
0029.811 (0) Table ndb_aiowps_login_activity: finishing file (backup_2017-04-06-1055_netsaleses_b3a1271d0cec-db-table-ndb_aiowps_login_activity.table.gz - 1.5 KB)
0029.818 (0) Table ndb_aiowps_login_lockdown: Total expected rows (approximate): 0
0029.821 (0) Table ndb_aiowps_login_lockdown: Total rows added: 0 in 0.00 seconds
0029.822 (0) Table ndb_aiowps_login_lockdown: finishing file (backup_2017-04-06-1055_netsaleses_b3a1271d0cec-db-table-ndb_aiowps_login_lockdown.table.gz - 0.4 KB)
0029.827 (0) Table ndb_aiowps_permanent_block: Total expected rows (approximate): 0
0029.829 (0) Table ndb_aiowps_permanent_block: Total rows added: 0 in 0.00 seconds
0029.830 (0) Table ndb_aiowps_permanent_block: finishing file (backup_2017-04-06-1055_netsaleses_b3a1271d0cec-db-table-ndb_aiowps_permanent_block.table.gz - 0.4 KB)
0029.835 (0) Table ndb_blc_filters: Total expected rows (approximate): 0
0029.838 (0) Table ndb_blc_filters: Total rows added: 0 in 0.00 seconds
0029.841 (0) Table ndb_blc_filters: finishing file (backup_2017-04-06-1055_netsaleses_b3a1271d0cec-db-table-ndb_blc_filters.table.gz - 0.3 KB)
0029.846 (0) Table ndb_blc_instances: Total expected rows (approximate): 30
0029.849 (0) Table ndb_blc_instances: Total rows added: 30 in 0.00 seconds
0029.851 (0) Table ndb_blc_instances: finishing file (backup_2017-04-06-1055_netsaleses_b3a1271d0cec-db-table-ndb_blc_instances.table.gz - 1.2 KB)
0029.856 (0) Table ndb_blc_links: Total expected rows (approximate): 18
0029.860 (0) Table ndb_blc_links: Total rows added: 22 in 0.00 seconds
0029.862 (0) Table ndb_blc_links: finishing file (backup_2017-04-06-1055_netsaleses_b3a1271d0cec-db-table-ndb_blc_links.table.gz - 4.8 KB)
0029.873 (0) Table ndb_blc_synch: Total expected rows (approximate): 18
0029.877 (0) Table ndb_blc_synch: Total rows added: 18 in 0.00 seconds
0029.880 (0) Table ndb_blc_synch: finishing file (backup_2017-04-06-1055_netsaleses_b3a1271d0cec-db-table-ndb_blc_synch.table.gz - 0.6 KB)
0029.886 (0) Table ndb_layerslider: Total expected rows (approximate): 13
0029.892 (0) Table ndb_layerslider: Total rows added: 14 in 0.00 seconds
0029.895 (0) Table ndb_layerslider: finishing file (backup_2017-04-06-1055_netsaleses_b3a1271d0cec-db-table-ndb_layerslider.table.gz - 6.1 KB)
0029.903 (0) Table ndb_newsletter: Total expected rows (approximate): 7
0029.910 (0) Table ndb_newsletter: Total rows added: 7 in 0.01 seconds
0029.913 (0) Table ndb_newsletter: finishing file (backup_2017-04-06-1055_netsaleses_b3a1271d0cec-db-table-ndb_newsletter.table.gz - 1 KB)
0029.920 (0) Table ndb_newsletter_emails: Total expected rows (approximate): 0
0029.923 (0) Table ndb_newsletter_emails: Total rows added: 0 in 0.00 seconds
0029.925 (0) Table ndb_newsletter_emails: finishing file (backup_2017-04-06-1055_netsaleses_b3a1271d0cec-db-table-ndb_newsletter_emails.table.gz - 0.5 KB)
0029.932 (0) Table ndb_newsletter_sent: Total expected rows (approximate): 0
0029.936 (0) Table ndb_newsletter_sent: Total rows added: 0 in 0.00 seconds
0029.940 (0) Table ndb_newsletter_sent: finishing file (backup_2017-04-06-1055_netsaleses_b3a1271d0cec-db-table-ndb_newsletter_sent.table.gz - 0.3 KB)
0029.947 (0) Table ndb_newsletter_stats: Total expected rows (approximate): 0
0029.950 (0) Table ndb_newsletter_stats: Total rows added: 0 in 0.00 seconds
0029.951 (0) Table ndb_newsletter_stats: finishing file (backup_2017-04-06-1055_netsaleses_b3a1271d0cec-db-table-ndb_newsletter_stats.table.gz - 0.4 KB)
0029.957 (0) backup_2017-04-06-1055_netsaleses_b3a1271d0cec-db-table-ndb_options.table.gz (1/27): adding to final database dump
0029.993 (0) backup_2017-04-06-1055_netsaleses_b3a1271d0cec-db-table-ndb_users.table.gz (2/27): adding to final database dump
0029.996 (0) backup_2017-04-06-1055_netsaleses_b3a1271d0cec-db-table-ndb_usermeta.table.gz (3/27): adding to final database dump
0029.999 (0) backup_2017-04-06-1055_netsaleses_b3a1271d0cec-db-table-ndb_commentmeta.table.gz (4/27): adding to final database dump
0030.000 (0) backup_2017-04-06-1055_netsaleses_b3a1271d0cec-db-table-ndb_comments.table.gz (5/27): adding to final database dump
0030.002 (0) backup_2017-04-06-1055_netsaleses_b3a1271d0cec-db-table-ndb_links.table.gz (6/27): adding to final database dump
0030.004 (0) backup_2017-04-06-1055_netsaleses_b3a1271d0cec-db-table-ndb_postmeta.table.gz (7/27): adding to final database dump
0030.033 (0) backup_2017-04-06-1055_netsaleses_b3a1271d0cec-db-table-ndb_posts.table.gz (8/27): adding to final database dump
0030.257 (0) backup_2017-04-06-1055_netsaleses_b3a1271d0cec-db-table-ndb_term_relationships.table.gz (9/27): adding to final database dump
0030.260 (0) backup_2017-04-06-1055_netsaleses_b3a1271d0cec-db-table-ndb_term_taxonomy.table.gz (10/27): adding to final database dump
0030.263 (0) backup_2017-04-06-1055_netsaleses_b3a1271d0cec-db-table-ndb_termmeta.table.gz (11/27): adding to final database dump
0030.265 (0) backup_2017-04-06-1055_netsaleses_b3a1271d0cec-db-table-ndb_terms.table.gz (12/27): adding to final database dump
0030.267 (0) backup_2017-04-06-1055_netsaleses_b3a1271d0cec-db-table-ndb_aiowps_events.table.gz (13/27): adding to final database dump
0030.268 (0) backup_2017-04-06-1055_netsaleses_b3a1271d0cec-db-table-ndb_aiowps_failed_logins.table.gz (14/27): adding to final database dump
0030.271 (0) backup_2017-04-06-1055_netsaleses_b3a1271d0cec-db-table-ndb_aiowps_global_meta.table.gz (15/27): adding to final database dump
0030.300 (0) backup_2017-04-06-1055_netsaleses_b3a1271d0cec-db-table-ndb_aiowps_login_activity.table.gz (16/27): adding to final database dump
0030.304 (0) backup_2017-04-06-1055_netsaleses_b3a1271d0cec-db-table-ndb_aiowps_login_lockdown.table.gz (17/27): adding to final database dump
0030.306 (0) backup_2017-04-06-1055_netsaleses_b3a1271d0cec-db-table-ndb_aiowps_permanent_block.table.gz (18/27): adding to final database dump
0030.308 (0) backup_2017-04-06-1055_netsaleses_b3a1271d0cec-db-table-ndb_blc_filters.table.gz (19/27): adding to final database dump
0030.311 (0) backup_2017-04-06-1055_netsaleses_b3a1271d0cec-db-table-ndb_blc_instances.table.gz (20/27): adding to final database dump
0030.313 (0) backup_2017-04-06-1055_netsaleses_b3a1271d0cec-db-table-ndb_blc_links.table.gz (21/27): adding to final database dump
0030.316 (0) backup_2017-04-06-1055_netsaleses_b3a1271d0cec-db-table-ndb_blc_synch.table.gz (22/27): adding to final database dump
0030.317 (0) backup_2017-04-06-1055_netsaleses_b3a1271d0cec-db-table-ndb_layerslider.table.gz (23/27): adding to final database dump
0030.321 (0) backup_2017-04-06-1055_netsaleses_b3a1271d0cec-db-table-ndb_newsletter.table.gz (24/27): adding to final database dump
0030.322 (0) backup_2017-04-06-1055_netsaleses_b3a1271d0cec-db-table-ndb_newsletter_emails.table.gz (25/27): adding to final database dump
0030.324 (0) backup_2017-04-06-1055_netsaleses_b3a1271d0cec-db-table-ndb_newsletter_sent.table.gz (26/27): adding to final database dump
0030.330 (0) backup_2017-04-06-1055_netsaleses_b3a1271d0cec-db-table-ndb_newsletter_stats.table.gz (27/27): adding to final database dump
0030.332 (0) backup_2017-04-06-1055_netsaleses_b3a1271d0cec-db.gz: finished writing out complete database file (1120 KB)
0030.362 (0) Total database tables backed up: 27 (backup_2017-04-06-1055_netsaleses_b3a1271d0cec-db.gz, size: 1176560, sha256)
0030.368 (0) backup_2017-04-06-1055_netsaleses_b3a1271d0cec-plugins.zip: plugins: This file has not yet been successfully uploaded: will queue
0030.370 (0) backup_2017-04-06-1055_netsaleses_b3a1271d0cec-themes.zip: themes: This file has not yet been successfully uploaded: will queue
0030.371 (0) backup_2017-04-06-1055_netsaleses_b3a1271d0cec-uploads.zip: uploads: This file has not yet been successfully uploaded: will queue
0030.371 (0) backup_2017-04-06-1055_netsaleses_b3a1271d0cec-others.zip: others: This file has not yet been successfully uploaded: will queue
0030.373 (0) backup_2017-04-06-1055_netsaleses_b3a1271d0cec-db.gz: db: This file has not yet been successfully uploaded: will queue
0030.374 (0) Saving backup history. Total backup size: 339.4 MB
0030.377 (0) Requesting upload of the files that have not yet been successfully uploaded (5)
0030.382 (0) Cloud backup selection (1/1): ftp (last)
0030.384 (0) Beginning dispatch of backup to remote (ftp)
0031.299 (0) FTP upload attempt: backup_2017-04-06-1055_netsaleses_b3a1271d0cec-plugins.zip -> ftp://ftp_wp_verticales@ftp.netsales.es//mnt/array1/BU_wp_verticales/backup_2017-04-06-1055_netsaleses_b3a1271d0cec-plugins.zip
0091.422 (0) PHP event: code E_WARNING: ftp_nb_fput(): PORT command successful (line 78, wp-content/plugins/updraftplus/includes/ftp.class.php)
0091.425 (0) FTP upload: error (0)
0091.427 (0) ERROR: FTP upload failed
0091.430 (0) An error condition has occurred for the first time during this job
0091.431 (0) FTP upload attempt: backup_2017-04-06-1055_netsaleses_b3a1271d0cec-themes.zip -> ftp://ftp_wp_verticales@ftp.netsales.es//mnt/array1/BU_wp_verticales/backup_2017-04-06-1055_netsaleses_b3a1271d0cec-themes.zip
0094.544 (0) PHP event: code E_WARNING: ftp_nb_fput(): Unable to build data connection: Connection timed out (line 78, wp-content/plugins/updraftplus/includes/ftp.class.php)
0094.548 (0) FTP upload: error (0)
0094.549 (0) ERROR: FTP upload failed
0094.551 (0) FTP upload attempt: backup_2017-04-06-1055_netsaleses_b3a1271d0cec-uploads.zip -> ftp://ftp_wp_verticales@ftp.netsales.es//mnt/array1/BU_wp_verticales/backup_2017-04-06-1055_netsaleses_b3a1271d0cec-uploads.zip
0154.643 (0) PHP event: code E_WARNING: ftp_nb_fput(): PORT command successful (line 78, wp-content/plugins/updraftplus/includes/ftp.class.php)
0154.646 (0) FTP upload: error (0)
0154.647 (0) ERROR: FTP upload failed
0154.649 (0) FTP upload attempt: backup_2017-04-06-1055_netsaleses_b3a1271d0cec-others.zip -> ftp://ftp_wp_verticales@ftp.netsales.es//mnt/array1/BU_wp_verticales/backup_2017-04-06-1055_netsaleses_b3a1271d0cec-others.zip
0157.744 (0) PHP event: code E_WARNING: ftp_nb_fput(): Unable to build data connection: Connection timed out (line 78, wp-content/plugins/updraftplus/includes/ftp.class.php)
0157.747 (0) FTP upload: error (0)
0157.748 (0) ERROR: FTP upload failed
0157.750 (0) FTP upload attempt: backup_2017-04-06-1055_netsaleses_b3a1271d0cec-db.gz -> ftp://ftp_wp_verticales@ftp.netsales.es//mnt/array1/BU_wp_verticales/backup_2017-04-06-1055_netsaleses_b3a1271d0cec-db.gz
0217.795 (0) PHP event: code E_WARNING: ftp_nb_fput(): PORT command successful (line 78, wp-content/plugins/updraftplus/includes/ftp.class.php)
0217.797 (0) FTP upload: error (0)
0217.799 (0) ERROR: FTP upload failed
0217.803 (0) Retain: beginning examination of existing backup sets; user setting: retain_files=2, retain_db=2
0217.805 (0) Number of backup sets in history: 1; groups (db): 1
0217.806 (0) Examining (for databases) backup set with group_id=0, nonce=b3a1271d0cec, datestamp=1491468904 (Apr 06 2017 08:55:04)
0217.808 (0) This backup set is the backup set just made, so will not be deleted.
0217.810 (0) Number of backup sets in history: 1; groups (files): 1
0217.811 (0) Examining (for files) backup set with nonce=b3a1271d0cec, datestamp=1491468904 (Apr 06 2017 08:55:04)
0217.813 (0) This backup set is the backup set just made, so will not be deleted.
0217.814 (0) This backup set is the backup set just made, so will not be deleted.
0217.815 (0) This backup set is the backup set just made, so will not be deleted.
0217.815 (0) This backup set is the backup set just made, so will not be deleted.
0217.815 (0) This backup set remains non-empty (f=1/d=1); will retain in history
0217.816 (0) Retain: saving new backup history (sets now: 1) and finishing retain operation
0220.954 (0) Resume backup (b3a1271d0cec, 0): finish run
0220.960 (0) Decremented the semaphore (fd) by 1
0220.963 (0) Semaphore (fd) unlocked
0220.964 (0) There were errors in the uploads, so the 'resume' event is remaining scheduled
0220.969 (0) Rescheduling resumption 1: moving to 120 seconds from now (1491469245)
0220.973 (0) No email will/can be sent - the user has not configured an email address.
0220.974 (0) El respaldo no ha terminado; una reanudación está programada
0345.729 (1) Opened log file at time: Thu, 06 Apr 2017 09:00:49 +0000 on https://netsales.es
0345.731 (1) UpdraftPlus WordPress backup plugin (https://updraftplus.com): 1.12.40 WP: 4.7.3 PHP: 5.5.9-1ubuntu4.21 (apache2handler, Linux netsales-web 4.9.7-x86_64-linode80 #2 SMP Thu Feb 2 15:43:55 EST 2017 x86_64) MySQL: 5.5.54 WPLANG: es_ES Server: Apache safe_mode: 0 max_execution_time: 900 memory_limit: 256M (used: 18M | 18.8M) multisite: N openssl: OpenSSL 1.0.1f 6 Jan 2014 mcrypt: Y LANG: C ZipArchive::addFile: Y
0345.733 (1) Free space on disk containing Updraft's temporary directory: 7037.6 MB
0345.737 (1) Backup run: resumption=1, nonce=b3a1271d0cec, begun at=1491468904 (345s ago), job type=backup, previous check-in=30s
0345.758 (1) Scheduling a resumption (2) after 300 seconds (1491469549) in case this run gets aborted
0345.772 (1) Checking if we have a zip executable available
0345.774 (1) Creation of backups of directories: already finished
0345.778 (1) Saving backup status to database (elements: 8)
0345.783 (1) Database dump (WordPress DB): Creation was completed already
0345.788 (1) backup_2017-04-06-1055_netsaleses_b3a1271d0cec-plugins.zip: plugins: This file has not yet been successfully uploaded: will queue
0345.789 (1) backup_2017-04-06-1055_netsaleses_b3a1271d0cec-themes.zip: themes: This file has not yet been successfully uploaded: will queue
0345.790 (1) backup_2017-04-06-1055_netsaleses_b3a1271d0cec-uploads.zip: uploads: This file has not yet been successfully uploaded: will queue
0345.791 (1) backup_2017-04-06-1055_netsaleses_b3a1271d0cec-others.zip: others: This file has not yet been successfully uploaded: will queue
0345.793 (1) backup_2017-04-06-1055_netsaleses_b3a1271d0cec-db.gz: db: This file has not yet been successfully uploaded: will queue
0345.794 (1) Saving backup history. Total backup size: 339.4 MB
0345.797 (1) Requesting upload of the files that have not yet been successfully uploaded (5)
0345.800 (1) Cloud backup selection (1/1): ftp (last)
0345.801 (1) Beginning dispatch of backup to remote (ftp)
0346.678 (1) FTP upload attempt: backup_2017-04-06-1055_netsaleses_b3a1271d0cec-plugins.zip -> ftp://ftp_wp_verticales@ftp.netsales.es//mnt/array1/BU_wp_verticales/backup_2017-04-06-1055_netsaleses_b3a1271d0cec-plugins.zip
0406.840 (1) PHP event: code E_WARNING: ftp_nb_fput(): PORT command successful (line 78, wp-content/plugins/updraftplus/includes/ftp.class.php)
0406.843 (1) FTP upload: error (0)
0406.844 (1) ERROR: FTP upload failed
0406.844 (1) An error condition has occurred for the first time during this job
0406.846 (1) FTP upload attempt: backup_2017-04-06-1055_netsaleses_b3a1271d0cec-themes.zip -> ftp://ftp_wp_verticales@ftp.netsales.es//mnt/array1/BU_wp_verticales/backup_2017-04-06-1055_netsaleses_b3a1271d0cec-themes.zip
0470.075 (1) PHP event: code E_WARNING: ftp_nb_fput(): PORT command successful (line 78, wp-content/plugins/updraftplus/includes/ftp.class.php)
0470.079 (1) FTP upload: error (0)
0470.081 (1) ERROR: FTP upload failed
0470.083 (1) FTP upload attempt: backup_2017-04-06-1055_netsaleses_b3a1271d0cec-uploads.zip -> ftp://ftp_wp_verticales@ftp.netsales.es//mnt/array1/BU_wp_verticales/backup_2017-04-06-1055_netsaleses_b3a1271d0cec-uploads.zip
0473.183 (1) PHP event: code E_WARNING: ftp_nb_fput(): 0 (line 78, wp-content/plugins/updraftplus/includes/ftp.class.php)
0473.186 (1) FTP upload: error (0)
0473.187 (1) ERROR: FTP upload failed
0473.189 (1) FTP upload attempt: backup_2017-04-06-1055_netsaleses_b3a1271d0cec-others.zip -> ftp://ftp_wp_verticales@ftp.netsales.es//mnt/array1/BU_wp_verticales/backup_2017-04-06-1055_netsaleses_b3a1271d0cec-others.zip
0473.248 (1) PHP event: code E_WARNING: ftp_nb_fput(): /mnt/array1/BU_wp_verticales/backup_2017-04-06-1055_netsaleses_b3a1271d0cec-others.zip: No such file or directory (line 78, wp-content/plugins/updraftplus/includes/ftp.class.php)
0473.250 (1) FTP upload: error (0)
0473.251 (1) ERROR: FTP upload failed
0473.253 (1) FTP upload attempt: backup_2017-04-06-1055_netsaleses_b3a1271d0cec-db.gz -> ftp://ftp_wp_verticales@ftp.netsales.es//mnt/array1/BU_wp_verticales/backup_2017-04-06-1055_netsaleses_b3a1271d0cec-db.gz
0473.314 (1) PHP event: code E_WARNING: ftp_nb_fput(): 0 (line 78, wp-content/plugins/updraftplus/includes/ftp.class.php)
0473.317 (1) FTP upload: error (0)
0473.317 (1) ERROR: FTP upload failed
0473.320 (1) Retain: beginning examination of existing backup sets; user setting: retain_files=2, retain_db=2
0473.321 (1) Number of backup sets in history: 1; groups (db): 1
0473.322 (1) Examining (for databases) backup set with group_id=0, nonce=b3a1271d0cec, datestamp=1491468904 (Apr 06 2017 08:55:04)
0473.323 (1) This backup set is the backup set just made, so will not be deleted.
0473.324 (1) Number of backup sets in history: 1; groups (files): 1
0473.325 (1) Examining (for files) backup set with nonce=b3a1271d0cec, datestamp=1491468904 (Apr 06 2017 08:55:04)
0473.326 (1) This backup set is the backup set just made, so will not be deleted.
0473.327 (1) This backup set is the backup set just made, so will not be deleted.
0473.327 (1) This backup set is the backup set just made, so will not be deleted.
0473.327 (1) This backup set is the backup set just made, so will not be deleted.
0473.327 (1) This backup set remains non-empty (f=1/d=1); will retain in history
0473.329 (1) Retain: saving new backup history (sets now: 1) and finishing retain operation
0473.347 (1) Resume backup (b3a1271d0cec, 1): finish run
0473.350 (1) There were errors in the uploads, so the 'resume' event is remaining scheduled
0473.352 (1) No email will/can be sent - the user has not configured an email address.
0473.353 (1) El respaldo no ha terminado; una reanudación está programada
0648.773 (2) Opened log file at time: Thu, 06 Apr 2017 09:05:52 +0000 on https://netsales.es
0648.774 (2) UpdraftPlus WordPress backup plugin (https://updraftplus.com): 1.12.40 WP: 4.7.3 PHP: 5.5.9-1ubuntu4.21 (apache2handler, Linux netsales-web 4.9.7-x86_64-linode80 #2 SMP Thu Feb 2 15:43:55 EST 2017 x86_64) MySQL: 5.5.54 WPLANG: es_ES Server: Apache safe_mode: 0 max_execution_time: 900 memory_limit: 256M (used: 18M | 18.8M) multisite: N openssl: OpenSSL 1.0.1f 6 Jan 2014 mcrypt: Y LANG: C ZipArchive::addFile: Y
0648.776 (2) Free space on disk containing Updraft's temporary directory: 7037.5 MB
0648.778 (2) Backup run: resumption=2, nonce=b3a1271d0cec, begun at=1491468904 (648s ago), job type=backup
0648.781 (2) Scheduling a resumption (3) after 300 seconds (1491469852) in case this run gets aborted
0648.791 (2) Checking if we have a zip executable available
0648.794 (2) Creation of backups of directories: already finished
0648.795 (2) Saving backup status to database (elements: 8)
0648.798 (2) Database dump (WordPress DB): Creation was completed already
0648.802 (2) backup_2017-04-06-1055_netsaleses_b3a1271d0cec-plugins.zip: plugins: This file has not yet been successfully uploaded: will queue
0648.804 (2) backup_2017-04-06-1055_netsaleses_b3a1271d0cec-themes.zip: themes: This file has not yet been successfully uploaded: will queue
0648.806 (2) backup_2017-04-06-1055_netsaleses_b3a1271d0cec-uploads.zip: uploads: This file has not yet been successfully uploaded: will queue
0648.807 (2) backup_2017-04-06-1055_netsaleses_b3a1271d0cec-others.zip: others: This file has not yet been successfully uploaded: will queue
0648.808 (2) backup_2017-04-06-1055_netsaleses_b3a1271d0cec-db.gz: db: This file has not yet been successfully uploaded: will queue
0648.809 (2) Saving backup history. Total backup size: 339.4 MB
0648.813 (2) Requesting upload of the files that have not yet been successfully uploaded (5)
0648.816 (2) Cloud backup selection (1/1): ftp (last)
0648.817 (2) Beginning dispatch of backup to remote (ftp)
0649.676 (2) FTP upload attempt: backup_2017-04-06-1055_netsaleses_b3a1271d0cec-plugins.zip -> ftp://ftp_wp_verticales@ftp.netsales.es//mnt/array1/BU_wp_verticales/backup_2017-04-06-1055_netsaleses_b3a1271d0cec-plugins.zip
0709.840 (2) PHP event: code E_WARNING: ftp_nb_fput(): PORT command successful (line 78, wp-content/plugins/updraftplus/includes/ftp.class.php)
0709.843 (2) FTP upload: error (0)
0709.844 (2) ERROR: FTP upload failed
0709.846 (2) An error condition has occurred for the first time during this job
0709.847 (2) FTP upload attempt: backup_2017-04-06-1055_netsaleses_b3a1271d0cec-themes.zip -> ftp://ftp_wp_verticales@ftp.netsales.es//mnt/array1/BU_wp_verticales/backup_2017-04-06-1055_netsaleses_b3a1271d0cec-themes.zip
0713.022 (2) PHP event: code E_WARNING: ftp_nb_fput(): 0 (line 78, wp-content/plugins/updraftplus/includes/ftp.class.php)
0713.024 (2) FTP upload: error (0)
0713.026 (2) ERROR: FTP upload failed
0713.026 (2) FTP upload attempt: backup_2017-04-06-1055_netsaleses_b3a1271d0cec-uploads.zip -> ftp://ftp_wp_verticales@ftp.netsales.es//mnt/array1/BU_wp_verticales/backup_2017-04-06-1055_netsaleses_b3a1271d0cec-uploads.zip
0713.087 (2) PHP event: code E_WARNING: ftp_nb_fput(): 0 (line 78, wp-content/plugins/updraftplus/includes/ftp.class.php)
0713.089 (2) FTP upload: error (0)
0713.090 (2) ERROR: FTP upload failed
0713.091 (2) FTP upload attempt: backup_2017-04-06-1055_netsaleses_b3a1271d0cec-others.zip -> ftp://ftp_wp_verticales@ftp.netsales.es//mnt/array1/BU_wp_verticales/backup_2017-04-06-1055_netsaleses_b3a1271d0cec-others.zip
0713.153 (2) PHP event: code E_WARNING: ftp_nb_fput(): /mnt/array1/BU_wp_verticales/backup_2017-04-06-1055_netsaleses_b3a1271d0cec-others.zip: No such file or directory (line 78, wp-content/plugins/updraftplus/includes/ftp.class.php)
0713.155 (2) FTP upload: error (0)
0713.156 (2) ERROR: FTP upload failed
0713.157 (2) FTP upload attempt: backup_2017-04-06-1055_netsaleses_b3a1271d0cec-db.gz -> ftp://ftp_wp_verticales@ftp.netsales.es//mnt/array1/BU_wp_verticales/backup_2017-04-06-1055_netsaleses_b3a1271d0cec-db.gz
0713.219 (2) PHP event: code E_WARNING: ftp_nb_fput(): 0 (line 78, wp-content/plugins/updraftplus/includes/ftp.class.php)
0713.221 (2) FTP upload: error (0)
0713.222 (2) ERROR: FTP upload failed
0713.225 (2) Retain: beginning examination of existing backup sets; user setting: retain_files=2, retain_db=2
0713.226 (2) Number of backup sets in history: 1; groups (db): 1
0713.227 (2) Examining (for databases) backup set with group_id=0, nonce=b3a1271d0cec, datestamp=1491468904 (Apr 06 2017 08:55:04)
0713.228 (2) This backup set is the backup set just made, so will not be deleted.
0713.229 (2) Number of backup sets in history: 1; groups (files): 1
0713.230 (2) Examining (for files) backup set with nonce=b3a1271d0cec, datestamp=1491468904 (Apr 06 2017 08:55:04)
0713.231 (2) This backup set is the backup set just made, so will not be deleted.
0713.232 (2) This backup set is the backup set just made, so will not be deleted.
0713.233 (2) This backup set is the backup set just made, so will not be deleted.
0713.233 (2) This backup set is the backup set just made, so will not be deleted.
0713.233 (2) This backup set remains non-empty (f=1/d=1); will retain in history
0713.234 (2) Retain: saving new backup history (sets now: 1) and finishing retain operation
0713.252 (2) Resume backup (b3a1271d0cec, 2): finish run
0713.254 (2) There were errors in the uploads, so the 'resume' event is remaining scheduled
0713.256 (2) No email will/can be sent - the user has not configured an email address.
0713.257 (2) El respaldo no ha terminado; una reanudación está programada
0994.813 (3) Opened log file at time: Thu, 06 Apr 2017 09:11:38 +0000 on https://netsales.es
0994.814 (3) UpdraftPlus WordPress backup plugin (https://updraftplus.com): 1.12.40 WP: 4.7.3 PHP: 5.5.9-1ubuntu4.21 (apache2handler, Linux netsales-web 4.9.7-x86_64-linode80 #2 SMP Thu Feb 2 15:43:55 EST 2017 x86_64) MySQL: 5.5.54 WPLANG: es_ES Server: Apache safe_mode: 0 max_execution_time: 900 memory_limit: 256M (used: 18M | 18.8M) multisite: N openssl: OpenSSL 1.0.1f 6 Jan 2014 mcrypt: Y LANG: C ZipArchive::addFile: Y
0994.816 (3) Free space on disk containing Updraft's temporary directory: 7309.7 MB
0994.818 (3) Backup run: resumption=3, nonce=b3a1271d0cec, begun at=1491468904 (994s ago), job type=backup
0994.820 (3) Scheduling a resumption (4) after 300 seconds (1491470198) in case this run gets aborted
0994.829 (3) Checking if we have a zip executable available
0994.830 (3) Creation of backups of directories: already finished
0994.832 (3) Saving backup status to database (elements: 8)
0994.834 (3) Database dump (WordPress DB): Creation was completed already
0994.839 (3) backup_2017-04-06-1055_netsaleses_b3a1271d0cec-plugins.zip: plugins: This file has not yet been successfully uploaded: will queue
0994.840 (3) backup_2017-04-06-1055_netsaleses_b3a1271d0cec-themes.zip: themes: This file has not yet been successfully uploaded: will queue
0994.841 (3) backup_2017-04-06-1055_netsaleses_b3a1271d0cec-uploads.zip: uploads: Note: This file was not marked as successfully uploaded, but does not exist on the local filesystem (/var/www/netsales/wp-content/updraft/backup_2017-04-06-1055_netsaleses_b3a1271d0cec-uploads.zip)
0994.843 (3) Recording as successfully uploaded: backup_2017-04-06-1055_netsaleses_b3a1271d0cec-uploads.zip (1da2ad4a004e606ce74d7330ae8746f4)
0994.847 (3) backup_2017-04-06-1055_netsaleses_b3a1271d0cec-others.zip: others: This file has not yet been successfully uploaded: will queue
0994.849 (3) backup_2017-04-06-1055_netsaleses_b3a1271d0cec-db.gz: db: This file has not yet been successfully uploaded: will queue
0994.850 (3) Saving backup history. Total backup size: 339.4 MB
0994.853 (3) Requesting upload of the files that have not yet been successfully uploaded (4)
0994.855 (3) Cloud backup selection (1/1): ftp (last)
0994.856 (3) Beginning dispatch of backup to remote (ftp)
0995.717 (3) FTP upload attempt: backup_2017-04-06-1055_netsaleses_b3a1271d0cec-plugins.zip -> ftp://ftp_wp_verticales@ftp.netsales.es//mnt/array1/BU_wp_verticales/backup_2017-04-06-1055_netsaleses_b3a1271d0cec-plugins.zip
1055.860 (3) PHP event: code E_WARNING: ftp_nb_fput(): PORT command successful (line 78, wp-content/plugins/updraftplus/includes/ftp.class.php)
1055.863 (3) FTP upload: error (0)
1055.864 (3) ERROR: FTP upload failed
1055.865 (3) An error condition has occurred for the first time during this job
1055.866 (3) FTP upload attempt: backup_2017-04-06-1055_netsaleses_b3a1271d0cec-themes.zip -> ftp://ftp_wp_verticales@ftp.netsales.es//mnt/array1/BU_wp_verticales/backup_2017-04-06-1055_netsaleses_b3a1271d0cec-themes.zip
1058.940 (3) PHP event: code E_WARNING: ftp_nb_fput(): 0 (line 78, wp-content/plugins/updraftplus/includes/ftp.class.php)
1058.943 (3) FTP upload: error (0)
1058.944 (3) ERROR: FTP upload failed
1058.945 (3) FTP upload attempt: backup_2017-04-06-1055_netsaleses_b3a1271d0cec-others.zip -> ftp://ftp_wp_verticales@ftp.netsales.es//mnt/array1/BU_wp_verticales/backup_2017-04-06-1055_netsaleses_b3a1271d0cec-others.zip
1058.998 (3) PHP event: code E_WARNING: ftp_nb_fput(): /mnt/array1/BU_wp_verticales/backup_2017-04-06-1055_netsaleses_b3a1271d0cec-others.zip: No such file or directory (line 78, wp-content/plugins/updraftplus/includes/ftp.class.php)
1059.000 (3) FTP upload: error (0)
1059.001 (3) ERROR: FTP upload failed
1059.003 (3) FTP upload attempt: backup_2017-04-06-1055_netsaleses_b3a1271d0cec-db.gz -> ftp://ftp_wp_verticales@ftp.netsales.es//mnt/array1/BU_wp_verticales/backup_2017-04-06-1055_netsaleses_b3a1271d0cec-db.gz
1059.057 (3) PHP event: code E_WARNING: ftp_nb_fput(): 0 (line 78, wp-content/plugins/updraftplus/includes/ftp.class.php)
1059.059 (3) FTP upload: error (0)
1059.060 (3) ERROR: FTP upload failed
1059.063 (3) Retain: beginning examination of existing backup sets; user setting: retain_files=2, retain_db=2
1059.064 (3) Number of backup sets in history: 1; groups (db): 1
1059.065 (3) Examining (for databases) backup set with group_id=0, nonce=b3a1271d0cec, datestamp=1491468904 (Apr 06 2017 08:55:04)
1059.066 (3) This backup set is the backup set just made, so will not be deleted.
1059.067 (3) Number of backup sets in history: 1; groups (files): 1
1059.068 (3) Examining (for files) backup set with nonce=b3a1271d0cec, datestamp=1491468904 (Apr 06 2017 08:55:04)
1059.069 (3) This backup set is the backup set just made, so will not be deleted.
1059.070 (3) This backup set is the backup set just made, so will not be deleted.
1059.070 (3) This backup set is the backup set just made, so will not be deleted.
1059.070 (3) This backup set is the backup set just made, so will not be deleted.
1059.071 (3) This backup set remains non-empty (f=1/d=1); will retain in history
1059.072 (3) Retain: saving new backup history (sets now: 1) and finishing retain operation
1059.085 (3) Resume backup (b3a1271d0cec, 3): finish run
1059.090 (3) There were errors in the uploads, so the 'resume' event is remaining scheduled
1059.093 (3) No email will/can be sent - the user has not configured an email address.
1059.094 (3) El respaldo no ha terminado; una reanudación está programada
1296.550 (4) Opened log file at time: Thu, 06 Apr 2017 09:16:40 +0000 on https://netsales.es
1296.551 (4) UpdraftPlus WordPress backup plugin (https://updraftplus.com): 1.12.40 WP: 4.7.3 PHP: 5.5.9-1ubuntu4.21 (apache2handler, Linux netsales-web 4.9.7-x86_64-linode80 #2 SMP Thu Feb 2 15:43:55 EST 2017 x86_64) MySQL: 5.5.54 WPLANG: es_ES Server: Apache safe_mode: 0 max_execution_time: 900 memory_limit: 256M (used: 18M | 18.8M) multisite: N openssl: OpenSSL 1.0.1f 6 Jan 2014 mcrypt: Y LANG: C ZipArchive::addFile: Y
1296.553 (4) Free space on disk containing Updraft's temporary directory: 7309.7 MB
1296.555 (4) Backup run: resumption=4, nonce=b3a1271d0cec, begun at=1491468904 (1296s ago), job type=backup
1296.557 (4) Scheduling a resumption (5) after 300 seconds (1491470500) in case this run gets aborted
1296.567 (4) Checking if we have a zip executable available
1296.568 (4) Creation of backups of directories: already finished
1296.570 (4) Saving backup status to database (elements: 8)
1296.572 (4) Database dump (WordPress DB): Creation was completed already
1296.576 (4) backup_2017-04-06-1055_netsaleses_b3a1271d0cec-plugins.zip: plugins: This file has not yet been successfully uploaded: will queue
1296.577 (4) backup_2017-04-06-1055_netsaleses_b3a1271d0cec-themes.zip: themes: This file has not yet been successfully uploaded: will queue
1296.578 (4) backup_2017-04-06-1055_netsaleses_b3a1271d0cec-uploads.zip: uploads: This file has already been successfully uploaded
1296.579 (4) backup_2017-04-06-1055_netsaleses_b3a1271d0cec-others.zip: others: This file has not yet been successfully uploaded: will queue
1296.580 (4) backup_2017-04-06-1055_netsaleses_b3a1271d0cec-db.gz: db: This file has not yet been successfully uploaded: will queue
1296.581 (4) Saving backup history. Total backup size: 339.4 MB
1296.583 (4) Requesting upload of the files that have not yet been successfully uploaded (4)
1296.586 (4) Cloud backup selection (1/1): ftp (last)
1296.587 (4) Beginning dispatch of backup to remote (ftp)
1297.416 (4) FTP upload attempt: backup_2017-04-06-1055_netsaleses_b3a1271d0cec-plugins.zip -> ftp://ftp_wp_verticales@ftp.netsales.es//mnt/array1/BU_wp_verticales/backup_2017-04-06-1055_netsaleses_b3a1271d0cec-plugins.zip
1357.566 (4) PHP event: code E_WARNING: ftp_nb_fput(): PORT command successful (line 78, wp-content/plugins/updraftplus/includes/ftp.class.php)
1357.569 (4) FTP upload: error (0)
1357.570 (4) ERROR: FTP upload failed
1357.571 (4) An error condition has occurred for the first time during this job
1357.572 (4) FTP upload attempt: backup_2017-04-06-1055_netsaleses_b3a1271d0cec-themes.zip -> ftp://ftp_wp_verticales@ftp.netsales.es//mnt/array1/BU_wp_verticales/backup_2017-04-06-1055_netsaleses_b3a1271d0cec-themes.zip
1360.699 (4) PHP event: code E_WARNING: ftp_nb_fput(): /mnt/array1/BU_wp_verticales/backup_2017-04-06-1055_netsaleses_b3a1271d0cec-themes.zip: No such file or directory (line 78, wp-content/plugins/updraftplus/includes/ftp.class.php)
1360.702 (4) FTP upload: error (0)
1360.703 (4) ERROR: FTP upload failed
1360.704 (4) FTP upload attempt: backup_2017-04-06-1055_netsaleses_b3a1271d0cec-others.zip -> ftp://ftp_wp_verticales@ftp.netsales.es//mnt/array1/BU_wp_verticales/backup_2017-04-06-1055_netsaleses_b3a1271d0cec-others.zip
1360.756 (4) PHP event: code E_WARNING: ftp_nb_fput(): /mnt/array1/BU_wp_verticales/backup_2017-04-06-1055_netsaleses_b3a1271d0cec-others.zip: No such file or directory (line 78, wp-content/plugins/updraftplus/includes/ftp.class.php)
1360.759 (4) FTP upload: error (0)
1360.760 (4) ERROR: FTP upload failed
1360.761 (4) FTP upload attempt: backup_2017-04-06-1055_netsaleses_b3a1271d0cec-db.gz -> ftp://ftp_wp_verticales@ftp.netsales.es//mnt/array1/BU_wp_verticales/backup_2017-04-06-1055_netsaleses_b3a1271d0cec-db.gz
1360.814 (4) PHP event: code E_WARNING: ftp_nb_fput(): /mnt/array1/BU_wp_verticales/backup_2017-04-06-1055_netsaleses_b3a1271d0cec-db.gz: No such file or directory (line 78, wp-content/plugins/updraftplus/includes/ftp.class.php)
1360.817 (4) FTP upload: error (0)
1360.818 (4) ERROR: FTP upload failed
1360.820 (4) Retain: beginning examination of existing backup sets; user setting: retain_files=2, retain_db=2
1360.822 (4) Number of backup sets in history: 1; groups (db): 1
1360.823 (4) Examining (for databases) backup set with group_id=0, nonce=b3a1271d0cec, datestamp=1491468904 (Apr 06 2017 08:55:04)
1360.824 (4) This backup set is the backup set just made, so will not be deleted.
1360.825 (4) Number of backup sets in history: 1; groups (files): 1
1360.826 (4) Examining (for files) backup set with nonce=b3a1271d0cec, datestamp=1491468904 (Apr 06 2017 08:55:04)
1360.826 (4) This backup set is the backup set just made, so will not be deleted.
1360.827 (4) This backup set is the backup set just made, so will not be deleted.
1360.828 (4) This backup set is the backup set just made, so will not be deleted.
1360.828 (4) This backup set is the backup set just made, so will not be deleted.
1360.828 (4) This backup set remains non-empty (f=1/d=1); will retain in history
1360.829 (4) Retain: saving new backup history (sets now: 1) and finishing retain operation
1360.843 (4) Resume backup (b3a1271d0cec, 4): finish run
1360.845 (4) There were errors in the uploads, so the 'resume' event is remaining scheduled
1360.847 (4) No email will/can be sent - the user has not configured an email address.
1360.849 (4) El respaldo no ha terminado; una reanudación está programada
1658.835 (5) Opened log file at time: Thu, 06 Apr 2017 09:22:42 +0000 on https://netsales.es
1658.836 (5) UpdraftPlus WordPress backup plugin (https://updraftplus.com): 1.12.40 WP: 4.7.3 PHP: 5.5.9-1ubuntu4.21 (apache2handler, Linux netsales-web 4.9.7-x86_64-linode80 #2 SMP Thu Feb 2 15:43:55 EST 2017 x86_64) MySQL: 5.5.54 WPLANG: es_ES Server: Apache safe_mode: 0 max_execution_time: 900 memory_limit: 256M (used: 18M | 18.8M) multisite: N openssl: OpenSSL 1.0.1f 6 Jan 2014 mcrypt: Y LANG: C ZipArchive::addFile: Y
1658.838 (5) Free space on disk containing Updraft's temporary directory: 7309.6 MB
1658.840 (5) Backup run: resumption=5, nonce=b3a1271d0cec, begun at=1491468904 (1658s ago), job type=backup
1658.843 (5) Scheduling a resumption (6) after 300 seconds (1491470862) in case this run gets aborted
1658.854 (5) Checking if we have a zip executable available
1658.856 (5) Creation of backups of directories: already finished
1658.857 (5) Saving backup status to database (elements: 8)
1658.860 (5) Database dump (WordPress DB): Creation was completed already
1658.866 (5) backup_2017-04-06-1055_netsaleses_b3a1271d0cec-plugins.zip: plugins: This file has not yet been successfully uploaded: will queue
1658.867 (5) backup_2017-04-06-1055_netsaleses_b3a1271d0cec-themes.zip: themes: This file has not yet been successfully uploaded: will queue
1658.868 (5) backup_2017-04-06-1055_netsaleses_b3a1271d0cec-uploads.zip: uploads: This file has already been successfully uploaded
1658.869 (5) backup_2017-04-06-1055_netsaleses_b3a1271d0cec-others.zip: others: This file has not yet been successfully uploaded: will queue
1658.870 (5) backup_2017-04-06-1055_netsaleses_b3a1271d0cec-db.gz: db: This file has not yet been successfully uploaded: will queue
1658.871 (5) Saving backup history. Total backup size: 339.4 MB
1658.874 (5) Requesting upload of the files that have not yet been successfully uploaded (4)
1658.877 (5) Cloud backup selection (1/1): ftp (last)
1658.878 (5) Beginning dispatch of backup to remote (ftp)
1659.773 (5) FTP upload attempt: backup_2017-04-06-1055_netsaleses_b3a1271d0cec-plugins.zip -> ftp://ftp_wp_verticales@ftp.netsales.es//mnt/array1/BU_wp_verticales/backup_2017-04-06-1055_netsaleses_b3a1271d0cec-plugins.zip
1719.941 (5) PHP event: code E_WARNING: ftp_nb_fput(): PORT command successful (line 78, wp-content/plugins/updraftplus/includes/ftp.class.php)
1719.944 (5) FTP upload: error (0)
1719.945 (5) ERROR: FTP upload failed
1719.946 (5) An error condition has occurred for the first time during this job
1719.947 (5) FTP upload attempt: backup_2017-04-06-1055_netsaleses_b3a1271d0cec-themes.zip -> ftp://ftp_wp_verticales@ftp.netsales.es//mnt/array1/BU_wp_verticales/backup_2017-04-06-1055_netsaleses_b3a1271d0cec-themes.zip
1723.108 (5) PHP event: code E_WARNING: ftp_nb_fput(): /mnt/array1/BU_wp_verticales/backup_2017-04-06-1055_netsaleses_b3a1271d0cec-themes.zip: No such file or directory (line 78, wp-content/plugins/updraftplus/includes/ftp.class.php)
1723.111 (5) FTP upload: error (0)
1723.112 (5) ERROR: FTP upload failed
1723.113 (5) FTP upload attempt: backup_2017-04-06-1055_netsaleses_b3a1271d0cec-others.zip -> ftp://ftp_wp_verticales@ftp.netsales.es//mnt/array1/BU_wp_verticales/backup_2017-04-06-1055_netsaleses_b3a1271d0cec-others.zip
1723.181 (5) PHP event: code E_WARNING: ftp_nb_fput(): /mnt/array1/BU_wp_verticales/backup_2017-04-06-1055_netsaleses_b3a1271d0cec-others.zip: No such file or directory (line 78, wp-content/plugins/updraftplus/includes/ftp.class.php)
1723.184 (5) FTP upload: error (0)
1723.185 (5) ERROR: FTP upload failed
1723.186 (5) FTP upload attempt: backup_2017-04-06-1055_netsaleses_b3a1271d0cec-db.gz -> ftp://ftp_wp_verticales@ftp.netsales.es//mnt/array1/BU_wp_verticales/backup_2017-04-06-1055_netsaleses_b3a1271d0cec-db.gz
1723.255 (5) PHP event: code E_WARNING: ftp_nb_fput(): /mnt/array1/BU_wp_verticales/backup_2017-04-06-1055_netsaleses_b3a1271d0cec-db.gz: No such file or directory (line 78, wp-content/plugins/updraftplus/includes/ftp.class.php)
1723.257 (5) FTP upload: error (0)
1723.259 (5) ERROR: FTP upload failed
1723.261 (5) Retain: beginning examination of existing backup sets; user setting: retain_files=2, retain_db=2
1723.262 (5) Number of backup sets in history: 1; groups (db): 1
1723.263 (5) Examining (for databases) backup set with group_id=0, nonce=b3a1271d0cec, datestamp=1491468904 (Apr 06 2017 08:55:04)
1723.264 (5) This backup set is the backup set just made, so will not be deleted.
1723.266 (5) Number of backup sets in history: 1; groups (files): 1
1723.267 (5) Examining (for files) backup set with nonce=b3a1271d0cec, datestamp=1491468904 (Apr 06 2017 08:55:04)
1723.268 (5) This backup set is the backup set just made, so will not be deleted.
1723.269 (5) This backup set is the backup set just made, so will not be deleted.
1723.269 (5) This backup set is the backup set just made, so will not be deleted.
1723.269 (5) This backup set is the backup set just made, so will not be deleted.
1723.270 (5) This backup set remains non-empty (f=1/d=1); will retain in history
1723.271 (5) Retain: saving new backup history (sets now: 1) and finishing retain operation
1723.292 (5) Resume backup (b3a1271d0cec, 5): finish run
1723.295 (5) There were errors in the uploads, so the 'resume' event is remaining scheduled
1723.298 (5) No email will/can be sent - the user has not configured an email address.
1723.299 (5) El respaldo no ha terminado; una reanudación está programada
1983.839 (6) Opened log file at time: Thu, 06 Apr 2017 09:28:07 +0000 on https://netsales.es
1983.841 (6) UpdraftPlus WordPress backup plugin (https://updraftplus.com): 1.12.40 WP: 4.7.3 PHP: 5.5.9-1ubuntu4.21 (apache2handler, Linux netsales-web 4.9.7-x86_64-linode80 #2 SMP Thu Feb 2 15:43:55 EST 2017 x86_64) MySQL: 5.5.54 WPLANG: es_ES Server: Apache safe_mode: 0 max_execution_time: 900 memory_limit: 256M (used: 18M | 18.8M) multisite: N openssl: OpenSSL 1.0.1f 6 Jan 2014 mcrypt: Y LANG: C ZipArchive::addFile: Y
1983.843 (6) Free space on disk containing Updraft's temporary directory: 7309.6 MB
1983.846 (6) Backup run: resumption=6, nonce=b3a1271d0cec, begun at=1491468904 (1983s ago), job type=backup
1983.848 (6) Scheduling a resumption (7) after 300 seconds (1491471187) in case this run gets aborted
1983.858 (6) Checking if we have a zip executable available
1983.860 (6) Creation of backups of directories: already finished
1983.861 (6) Saving backup status to database (elements: 8)
1983.864 (6) Database dump (WordPress DB): Creation was completed already
1983.868 (6) backup_2017-04-06-1055_netsaleses_b3a1271d0cec-plugins.zip: plugins: This file has not yet been successfully uploaded: will queue
1983.870 (6) backup_2017-04-06-1055_netsaleses_b3a1271d0cec-themes.zip: themes: This file has not yet been successfully uploaded: will queue
1983.871 (6) backup_2017-04-06-1055_netsaleses_b3a1271d0cec-uploads.zip: uploads: This file has already been successfully uploaded
1983.872 (6) backup_2017-04-06-1055_netsaleses_b3a1271d0cec-others.zip: others: This file has not yet been successfully uploaded: will queue
1983.873 (6) backup_2017-04-06-1055_netsaleses_b3a1271d0cec-db.gz: db: This file has not yet been successfully uploaded: will queue
1983.874 (6) Saving backup history. Total backup size: 339.4 MB
1983.877 (6) Requesting upload of the files that have not yet been successfully uploaded (4)
1983.880 (6) Cloud backup selection (1/1): ftp (last)
1983.881 (6) Beginning dispatch of backup to remote (ftp)
1984.773 (6) FTP upload attempt: backup_2017-04-06-1055_netsaleses_b3a1271d0cec-plugins.zip -> ftp://ftp_wp_verticales@ftp.netsales.es//mnt/array1/BU_wp_verticales/backup_2017-04-06-1055_netsaleses_b3a1271d0cec-plugins.zip
2044.952 (6) PHP event: code E_WARNING: ftp_nb_fput(): PORT command successful (line 78, wp-content/plugins/updraftplus/includes/ftp.class.php)
2044.955 (6) FTP upload: error (0)
2044.956 (6) ERROR: FTP upload failed
2044.957 (6) An error condition has occurred for the first time during this job
2044.958 (6) FTP upload attempt: backup_2017-04-06-1055_netsaleses_b3a1271d0cec-themes.zip -> ftp://ftp_wp_verticales@ftp.netsales.es//mnt/array1/BU_wp_verticales/backup_2017-04-06-1055_netsaleses_b3a1271d0cec-themes.zip
2048.058 (6) PHP event: code E_WARNING: ftp_nb_fput(): /mnt/array1/BU_wp_verticales/backup_2017-04-06-1055_netsaleses_b3a1271d0cec-themes.zip: No such file or directory (line 78, wp-content/plugins/updraftplus/includes/ftp.class.php)
2048.061 (6) FTP upload: error (0)
2048.083 (6) ERROR: FTP upload failed
2048.098 (6) FTP upload attempt: backup_2017-04-06-1055_netsaleses_b3a1271d0cec-others.zip -> ftp://ftp_wp_verticales@ftp.netsales.es//mnt/array1/BU_wp_verticales/backup_2017-04-06-1055_netsaleses_b3a1271d0cec-others.zip
2048.166 (6) PHP event: code E_WARNING: ftp_nb_fput(): /mnt/array1/BU_wp_verticales/backup_2017-04-06-1055_netsaleses_b3a1271d0cec-others.zip: No such file or directory (line 78, wp-content/plugins/updraftplus/includes/ftp.class.php)
2048.168 (6) FTP upload: error (0)
2048.169 (6) ERROR: FTP upload failed
2048.170 (6) FTP upload attempt: backup_2017-04-06-1055_netsaleses_b3a1271d0cec-db.gz -> ftp://ftp_wp_verticales@ftp.netsales.es//mnt/array1/BU_wp_verticales/backup_2017-04-06-1055_netsaleses_b3a1271d0cec-db.gz
2048.242 (6) PHP event: code E_WARNING: ftp_nb_fput(): /mnt/array1/BU_wp_verticales/backup_2017-04-06-1055_netsaleses_b3a1271d0cec-db.gz: No such file or directory (line 78, wp-content/plugins/updraftplus/includes/ftp.class.php)
2048.244 (6) FTP upload: error (0)
2048.245 (6) ERROR: FTP upload failed
2048.248 (6) Retain: beginning examination of existing backup sets; user setting: retain_files=2, retain_db=2
2048.249 (6) Number of backup sets in history: 1; groups (db): 1
2048.250 (6) Examining (for databases) backup set with group_id=0, nonce=b3a1271d0cec, datestamp=1491468904 (Apr 06 2017 08:55:04)
2048.251 (6) This backup set is the backup set just made, so will not be deleted.
2048.252 (6) Number of backup sets in history: 1; groups (files): 1
2048.253 (6) Examining (for files) backup set with nonce=b3a1271d0cec, datestamp=1491468904 (Apr 06 2017 08:55:04)
2048.254 (6) This backup set is the backup set just made, so will not be deleted.
2048.255 (6) This backup set is the backup set just made, so will not be deleted.
2048.256 (6) This backup set is the backup set just made, so will not be deleted.
2048.256 (6) This backup set is the backup set just made, so will not be deleted.
2048.256 (6) This backup set remains non-empty (f=1/d=1); will retain in history
2048.257 (6) Retain: saving new backup history (sets now: 1) and finishing retain operation
2048.281 (6) Resume backup (b3a1271d0cec, 6): finish run
2048.283 (6) There were errors in the uploads, so the 'resume' event is remaining scheduled
2048.286 (6) No email will/can be sent - the user has not configured an email address.
2048.287 (6) El respaldo no ha terminado; una reanudación está programada
2288.228 (7) Opened log file at time: Thu, 06 Apr 2017 09:33:12 +0000 on https://netsales.es
2288.229 (7) UpdraftPlus WordPress backup plugin (https://updraftplus.com): 1.12.40 WP: 4.7.3 PHP: 5.5.9-1ubuntu4.21 (apache2handler, Linux netsales-web 4.9.7-x86_64-linode80 #2 SMP Thu Feb 2 15:43:55 EST 2017 x86_64) MySQL: 5.5.54 WPLANG: es_ES Server: Apache safe_mode: 0 max_execution_time: 900 memory_limit: 256M (used: 18M | 18.8M) multisite: N openssl: OpenSSL 1.0.1f 6 Jan 2014 mcrypt: Y LANG: C ZipArchive::addFile: Y
2288.230 (7) Free space on disk containing Updraft's temporary directory: 7309.6 MB
2288.232 (7) Backup run: resumption=7, nonce=b3a1271d0cec, begun at=1491468904 (2288s ago), job type=backup
2288.234 (7) Scheduling a resumption (8) after 300 seconds (1491471492) in case this run gets aborted
2288.244 (7) Checking if we have a zip executable available
2288.245 (7) Creation of backups of directories: already finished
2288.246 (7) Saving backup status to database (elements: 8)
2288.249 (7) Database dump (WordPress DB): Creation was completed already
2288.253 (7) backup_2017-04-06-1055_netsaleses_b3a1271d0cec-plugins.zip: plugins: This file has not yet been successfully uploaded: will queue
2288.254 (7) backup_2017-04-06-1055_netsaleses_b3a1271d0cec-themes.zip: themes: This file has not yet been successfully uploaded: will queue
2288.255 (7) backup_2017-04-06-1055_netsaleses_b3a1271d0cec-uploads.zip: uploads: This file has already been successfully uploaded
2288.256 (7) backup_2017-04-06-1055_netsaleses_b3a1271d0cec-others.zip: others: This file has not yet been successfully uploaded: will queue
2288.257 (7) backup_2017-04-06-1055_netsaleses_b3a1271d0cec-db.gz: db: This file has not yet been successfully uploaded: will queue
2288.258 (7) Saving backup history. Total backup size: 339.4 MB
2288.261 (7) Requesting upload of the files that have not yet been successfully uploaded (4)
2288.263 (7) Cloud backup selection (1/1): ftp (last)
2288.264 (7) Beginning dispatch of backup to remote (ftp)
2289.133 (7) FTP upload attempt: backup_2017-04-06-1055_netsaleses_b3a1271d0cec-plugins.zip -> ftp://ftp_wp_verticales@ftp.netsales.es//mnt/array1/BU_wp_verticales/backup_2017-04-06-1055_netsaleses_b3a1271d0cec-plugins.zip
2349.295 (7) PHP event: code E_WARNING: ftp_nb_fput(): PORT command successful (line 78, wp-content/plugins/updraftplus/includes/ftp.class.php)
2349.298 (7) FTP upload: error (0)
2349.299 (7) ERROR: FTP upload failed
2349.301 (7) An error condition has occurred for the first time during this job
2349.303 (7) FTP upload attempt: backup_2017-04-06-1055_netsaleses_b3a1271d0cec-themes.zip -> ftp://ftp_wp_verticales@ftp.netsales.es//mnt/array1/BU_wp_verticales/backup_2017-04-06-1055_netsaleses_b3a1271d0cec-themes.zip
2412.441 (7) PHP event: code E_WARNING: ftp_nb_fput(): PORT command successful (line 78, wp-content/plugins/updraftplus/includes/ftp.class.php)
2412.444 (7) FTP upload: error (0)
2412.445 (7) ERROR: FTP upload failed
2412.446 (7) FTP upload attempt: backup_2017-04-06-1055_netsaleses_b3a1271d0cec-others.zip -> ftp://ftp_wp_verticales@ftp.netsales.es//mnt/array1/BU_wp_verticales/backup_2017-04-06-1055_netsaleses_b3a1271d0cec-others.zip
2415.575 (7) PHP event: code E_WARNING: ftp_nb_fput(): /mnt/array1/BU_wp_verticales/backup_2017-04-06-1055_netsaleses_b3a1271d0cec-others.zip: No such file or directory (line 78, wp-content/plugins/updraftplus/includes/ftp.class.php)
2415.578 (7) FTP upload: error (0)
2415.579 (7) ERROR: FTP upload failed
2415.581 (7) FTP upload attempt: backup_2017-04-06-1055_netsaleses_b3a1271d0cec-db.gz -> ftp://ftp_wp_verticales@ftp.netsales.es//mnt/array1/BU_wp_verticales/backup_2017-04-06-1055_netsaleses_b3a1271d0cec-db.gz
2415.639 (7) PHP event: code E_WARNING: ftp_nb_fput(): /mnt/array1/BU_wp_verticales/backup_2017-04-06-1055_netsaleses_b3a1271d0cec-db.gz: No such file or directory (line 78, wp-content/plugins/updraftplus/includes/ftp.class.php)
2415.641 (7) FTP upload: error (0)
2415.643 (7) ERROR: FTP upload failed
2415.646 (7) Retain: beginning examination of existing backup sets; user setting: retain_files=2, retain_db=2
2415.647 (7) Number of backup sets in history: 1; groups (db): 1
2415.649 (7) Examining (for databases) backup set with group_id=0, nonce=b3a1271d0cec, datestamp=1491468904 (Apr 06 2017 08:55:04)
2415.650 (7) This backup set is the backup set just made, so will not be deleted.
2415.651 (7) Number of backup sets in history: 1; groups (files): 1
2415.652 (7) Examining (for files) backup set with nonce=b3a1271d0cec, datestamp=1491468904 (Apr 06 2017 08:55:04)
2415.653 (7) This backup set is the backup set just made, so will not be deleted.
2415.654 (7) This backup set is the backup set just made, so will not be deleted.
2415.654 (7) This backup set is the backup set just made, so will not be deleted.
2415.654 (7) This backup set is the backup set just made, so will not be deleted.
2415.654 (7) This backup set remains non-empty (f=1/d=1); will retain in history
2415.656 (7) Retain: saving new backup history (sets now: 1) and finishing retain operation
2415.672 (7) Resume backup (b3a1271d0cec, 7): finish run
2415.675 (7) There were errors in the uploads, so the 'resume' event is remaining scheduled
2415.678 (7) No email will/can be sent - the user has not configured an email address.
2415.679 (7) El respaldo no ha terminado; una reanudación está programada
2824.787 (8) Opened log file at time: Thu, 06 Apr 2017 09:42:08 +0000 on https://netsales.es
2824.790 (8) UpdraftPlus WordPress backup plugin (https://updraftplus.com): 1.12.40 WP: 4.7.3 PHP: 5.5.9-1ubuntu4.21 (apache2handler, Linux netsales-web 4.9.7-x86_64-linode80 #2 SMP Thu Feb 2 15:43:55 EST 2017 x86_64) MySQL: 5.5.54 WPLANG: es_ES Server: Apache safe_mode: 0 max_execution_time: 900 memory_limit: 256M (used: 18M | 18.8M) multisite: N openssl: OpenSSL 1.0.1f 6 Jan 2014 mcrypt: Y LANG: C ZipArchive::addFile: Y
2824.791 (8) Free space on disk containing Updraft's temporary directory: 7309.6 MB
2824.794 (8) Backup run: resumption=8, nonce=b3a1271d0cec, begun at=1491468904 (2824s ago), job type=backup
2824.796 (8) Scheduling a resumption (9) after 300 seconds (1491472028) in case this run gets aborted
2824.806 (8) Checking if we have a zip executable available
2824.808 (8) Creation of backups of directories: already finished
2824.809 (8) Saving backup status to database (elements: 8)
2824.812 (8) Database dump (WordPress DB): Creation was completed already
2824.816 (8) backup_2017-04-06-1055_netsaleses_b3a1271d0cec-plugins.zip: plugins: This file has not yet been successfully uploaded: will queue
2824.817 (8) backup_2017-04-06-1055_netsaleses_b3a1271d0cec-themes.zip: themes: This file has not yet been successfully uploaded: will queue
2824.818 (8) backup_2017-04-06-1055_netsaleses_b3a1271d0cec-uploads.zip: uploads: This file has already been successfully uploaded
2824.819 (8) backup_2017-04-06-1055_netsaleses_b3a1271d0cec-others.zip: others: This file has not yet been successfully uploaded: will queue
2824.820 (8) backup_2017-04-06-1055_netsaleses_b3a1271d0cec-db.gz: db: This file has not yet been successfully uploaded: will queue
2824.820 (8) Saving backup history. Total backup size: 339.4 MB
2824.823 (8) Requesting upload of the files that have not yet been successfully uploaded (4)
2824.826 (8) Cloud backup selection (1/1): ftp (last)
2824.827 (8) Beginning dispatch of backup to remote (ftp)
2825.721 (8) FTP upload attempt: backup_2017-04-06-1055_netsaleses_b3a1271d0cec-plugins.zip -> ftp://ftp_wp_verticales@ftp.netsales.es//mnt/array1/BU_wp_verticales/backup_2017-04-06-1055_netsaleses_b3a1271d0cec-plugins.zip
2885.899 (8) PHP event: code E_WARNING: ftp_nb_fput(): PORT command successful (line 78, wp-content/plugins/updraftplus/includes/ftp.class.php)
2885.902 (8) FTP upload: error (0)
2885.903 (8) ERROR: FTP upload failed
2885.904 (8) An error condition has occurred for the first time during this job
2885.905 (8) FTP upload attempt: backup_2017-04-06-1055_netsaleses_b3a1271d0cec-themes.zip -> ftp://ftp_wp_verticales@ftp.netsales.es//mnt/array1/BU_wp_verticales/backup_2017-04-06-1055_netsaleses_b3a1271d0cec-themes.zip
2949.088 (8) PHP event: code E_WARNING: ftp_nb_fput(): PORT command successful (line 78, wp-content/plugins/updraftplus/includes/ftp.class.php)
2949.090 (8) FTP upload: error (0)
2949.092 (8) ERROR: FTP upload failed
2949.093 (8) FTP upload attempt: backup_2017-04-06-1055_netsaleses_b3a1271d0cec-others.zip -> ftp://ftp_wp_verticales@ftp.netsales.es//mnt/array1/BU_wp_verticales/backup_2017-04-06-1055_netsaleses_b3a1271d0cec-others.zip
2952.214 (8) PHP event: code E_WARNING: ftp_nb_fput(): /mnt/array1/BU_wp_verticales/backup_2017-04-06-1055_netsaleses_b3a1271d0cec-others.zip: No such file or directory (line 78, wp-content/plugins/updraftplus/includes/ftp.class.php)
2952.217 (8) FTP upload: error (0)
2952.219 (8) ERROR: FTP upload failed
2952.220 (8) FTP upload attempt: backup_2017-04-06-1055_netsaleses_b3a1271d0cec-db.gz -> ftp://ftp_wp_verticales@ftp.netsales.es//mnt/array1/BU_wp_verticales/backup_2017-04-06-1055_netsaleses_b3a1271d0cec-db.gz
2952.290 (8) PHP event: code E_WARNING: ftp_nb_fput(): /mnt/array1/BU_wp_verticales/backup_2017-04-06-1055_netsaleses_b3a1271d0cec-db.gz: No such file or directory (line 78, wp-content/plugins/updraftplus/includes/ftp.class.php)
2952.292 (8) FTP upload: error (0)
2952.293 (8) ERROR: FTP upload failed
2952.295 (8) Retain: beginning examination of existing backup sets; user setting: retain_files=2, retain_db=2
2952.297 (8) Number of backup sets in history: 1; groups (db): 1
2952.298 (8) Examining (for databases) backup set with group_id=0, nonce=b3a1271d0cec, datestamp=1491468904 (Apr 06 2017 08:55:04)
2952.299 (8) This backup set is the backup set just made, so will not be deleted.
2952.300 (8) Number of backup sets in history: 1; groups (files): 1
2952.301 (8) Examining (for files) backup set with nonce=b3a1271d0cec, datestamp=1491468904 (Apr 06 2017 08:55:04)
2952.302 (8) This backup set is the backup set just made, so will not be deleted.
2952.303 (8) This backup set is the backup set just made, so will not be deleted.
2952.303 (8) This backup set is the backup set just made, so will not be deleted.
2952.303 (8) This backup set is the backup set just made, so will not be deleted.
2952.304 (8) This backup set remains non-empty (f=1/d=1); will retain in history
2952.304 (8) Retain: saving new backup history (sets now: 1) and finishing retain operation
2952.328 (8) Resume backup (b3a1271d0cec, 8): finish run
2952.330 (8) There were errors in the uploads, so the 'resume' event is remaining scheduled
2952.333 (8) No email will/can be sent - the user has not configured an email address.
2952.334 (8) El respaldo no ha terminado; una reanudación está programada
3150.509 (9) Opened log file at time: Thu, 06 Apr 2017 09:47:34 +0000 on https://netsales.es
3150.511 (9) UpdraftPlus WordPress backup plugin (https://updraftplus.com): 1.12.40 WP: 4.7.3 PHP: 5.5.9-1ubuntu4.21 (apache2handler, Linux netsales-web 4.9.7-x86_64-linode80 #2 SMP Thu Feb 2 15:43:55 EST 2017 x86_64) MySQL: 5.5.54 WPLANG: es_ES Server: Apache safe_mode: 0 max_execution_time: 900 memory_limit: 256M (used: 18M | 18.8M) multisite: N openssl: OpenSSL 1.0.1f 6 Jan 2014 mcrypt: Y LANG: C ZipArchive::addFile: Y
3150.513 (9) Free space on disk containing Updraft's temporary directory: 7309.6 MB
3150.519 (9) Backup run: resumption=9, nonce=b3a1271d0cec, begun at=1491468904 (3150s ago), job type=backup
3150.524 (9) The current run is resumption number 9, and there was nothing useful done on the last run (last useful run: 0) - will not schedule a further attempt until we see something useful happening this time
3150.535 (9) Creation of backups of directories: already finished
3150.537 (9) Saving backup status to database (elements: 8)
3150.540 (9) Database dump (WordPress DB): Creation was completed already
3150.545 (9) backup_2017-04-06-1055_netsaleses_b3a1271d0cec-plugins.zip: plugins: This file has not yet been successfully uploaded: will queue
3150.546 (9) backup_2017-04-06-1055_netsaleses_b3a1271d0cec-themes.zip: themes: This file has not yet been successfully uploaded: will queue
3150.547 (9) backup_2017-04-06-1055_netsaleses_b3a1271d0cec-uploads.zip: uploads: This file has already been successfully uploaded
3150.549 (9) backup_2017-04-06-1055_netsaleses_b3a1271d0cec-others.zip: others: This file has not yet been successfully uploaded: will queue
3150.550 (9) backup_2017-04-06-1055_netsaleses_b3a1271d0cec-db.gz: db: This file has not yet been successfully uploaded: will queue
3150.552 (9) Saving backup history. Total backup size: 339.4 MB
3150.556 (9) Requesting upload of the files that have not yet been successfully uploaded (4)
3150.559 (9) Cloud backup selection (1/1): ftp (last)
3150.560 (9) Beginning dispatch of backup to remote (ftp)
3151.393 (9) FTP upload attempt: backup_2017-04-06-1055_netsaleses_b3a1271d0cec-plugins.zip -> ftp://ftp_wp_verticales@ftp.netsales.es//mnt/array1/BU_wp_verticales/backup_2017-04-06-1055_netsaleses_b3a1271d0cec-plugins.zip
3211.547 (9) PHP event: code E_WARNING: ftp_nb_fput(): PORT command successful (line 78, wp-content/plugins/updraftplus/includes/ftp.class.php)
3211.550 (9) FTP upload: error (0)
3211.551 (9) ERROR: FTP upload failed
3211.553 (9) An error condition has occurred for the first time during this job
3211.554 (9) FTP upload attempt: backup_2017-04-06-1055_netsaleses_b3a1271d0cec-themes.zip -> ftp://ftp_wp_verticales@ftp.netsales.es//mnt/array1/BU_wp_verticales/backup_2017-04-06-1055_netsaleses_b3a1271d0cec-themes.zip
3214.614 (9) PHP event: code E_WARNING: ftp_nb_fput(): 0 (line 78, wp-content/plugins/updraftplus/includes/ftp.class.php)
3214.617 (9) FTP upload: error (0)
3214.618 (9) ERROR: FTP upload failed
3214.620 (9) FTP upload attempt: backup_2017-04-06-1055_netsaleses_b3a1271d0cec-others.zip -> ftp://ftp_wp_verticales@ftp.netsales.es//mnt/array1/BU_wp_verticales/backup_2017-04-06-1055_netsaleses_b3a1271d0cec-others.zip
3214.673 (9) PHP event: code E_WARNING: ftp_nb_fput(): /mnt/array1/BU_wp_verticales/backup_2017-04-06-1055_netsaleses_b3a1271d0cec-others.zip: No such file or directory (line 78, wp-content/plugins/updraftplus/includes/ftp.class.php)
3214.676 (9) FTP upload: error (0)
3214.677 (9) ERROR: FTP upload failed
3214.679 (9) FTP upload attempt: backup_2017-04-06-1055_netsaleses_b3a1271d0cec-db.gz -> ftp://ftp_wp_verticales@ftp.netsales.es//mnt/array1/BU_wp_verticales/backup_2017-04-06-1055_netsaleses_b3a1271d0cec-db.gz
3214.733 (9) PHP event: code E_WARNING: ftp_nb_fput(): /mnt/array1/BU_wp_verticales/backup_2017-04-06-1055_netsaleses_b3a1271d0cec-db.gz: No such file or directory (line 78, wp-content/plugins/updraftplus/includes/ftp.class.php)
3214.736 (9) FTP upload: error (0)
3214.737 (9) ERROR: FTP upload failed
3214.742 (9) Retain: beginning examination of existing backup sets; user setting: retain_files=2, retain_db=2
3214.746 (9) Number of backup sets in history: 1; groups (db): 1
3214.751 (9) Examining (for databases) backup set with group_id=0, nonce=b3a1271d0cec, datestamp=1491468904 (Apr 06 2017 08:55:04)
3214.754 (9) This backup set is the backup set just made, so will not be deleted.
3214.756 (9) Number of backup sets in history: 1; groups (files): 1
3214.757 (9) Examining (for files) backup set with nonce=b3a1271d0cec, datestamp=1491468904 (Apr 06 2017 08:55:04)
3214.759 (9) This backup set is the backup set just made, so will not be deleted.
3214.760 (9) This backup set is the backup set just made, so will not be deleted.
3214.761 (9) This backup set is the backup set just made, so will not be deleted.
3214.761 (9) This backup set is the backup set just made, so will not be deleted.
3214.761 (9) This backup set remains non-empty (f=1/d=1); will retain in history
3214.763 (9) Retain: saving new backup history (sets now: 1) and finishing retain operation
3214.767 (9) Resume backup (b3a1271d0cec, 9): finish run
3214.769 (9) There were errors in the uploads, so the 'resume' event is remaining scheduled
3214.771 (9) No email will/can be sent - the user has not configured an email address.
3214.772 (9) El intento de respaldo ha terminado, al parecer sin éxito
